{
  "name": "icon-",
  "css_prefix_text": "icon-",
  "css_use_suffix": false,
  "hinting": true,
  "units_per_em": 1000,
  "ascent": 850,
  "glyphs": [
    {
      "uid": "cfaa8fbbdcc7bb8d636cb974aad1f9b9",
      "css": "glass",
      "code": 59392,
      "src": "fontawesome"
    },
    {
      "uid": "9ea0a737ccc45d6c510dcbae56058849",
      "css": "music",
      "code": 59393,
      "src": "fontawesome"
    },
    {
      "uid": "9dd9e835aebe1060ba7190ad2b2ed951",
      "css": "search",
      "code": 59394,
      "src": "fontawesome"
    },
    {
      "uid": "bf882b30900da12fca090d9796bc3030",
      "css": "mail",
      "code": 59395,
      "src": "fontawesome"
    },
    {
      "uid": "ccc2329632396dc096bb638d4b46fb98",
      "css": "mail-alt",
      "code": 61664,
      "src": "fontawesome"
    },
    {
      "uid": "17c21cd98db80e521e573eba247bd69b",
      "css": "mail-squared",
      "code": 61849,
      "src": "fontawesome"
    },
    {
      "uid": "d73eceadda1f594cec0536087539afbf",
      "css": "heart",
      "code": 59396,
      "src": "fontawesome"
    },
    {
      "uid": "f3dc2d6d8fe9cf9ebff84dc260888cdf",
      "css": "heart-empty",
      "code": 59397,
      "src": "fontawesome"
    },
    {
      "uid": "474656633f79ea2f1dad59ff63f6bf07",
      "css": "star",
      "code": 59398,
      "src": "fontawesome"
    },
    {
      "uid": "d17030afaecc1e1c22349b99f3c4992a",
      "css": "star-empty",
      "code": 59399,
      "src": "fontawesome"
    },
    {
      "uid": "8f8278fbe5a2a0ea836be3c408b005d2",
      "css": "star-half",
      "code": 59400,
      "src": "fontawesome"
    },
    {
      "uid": "84cf1fcc3fec556e7eaeb19679ca2dc9",
      "css": "star-half-alt",
      "code": 61731,
      "src": "fontawesome"
    },
    {
      "uid": "8b80d36d4ef43889db10bc1f0dc9a862",
      "css": "user",
      "code": 59401,
      "src": "fontawesome"
    },
    {
      "uid": "1bafeeb1808a5fe24484c7890096901a",
      "css": "user-plus",
      "code": 62004,
      "src": "fontawesome"
    },
    {
      "uid": "fb1c59faa93eb6e2248c2456625b08a2",
      "css": "user-times",
      "code": 62005,
      "src": "fontawesome"
    },
    {
      "uid": "31972e4e9d080eaa796290349ae6c1fd",
      "css": "users",
      "code": 59402,
      "src": "fontawesome"
    },
    {
      "uid": "ca2d64f8a3ea7cbf6af45898b2dcf35e",
      "css": "male",
      "code": 61827,
      "src": "fontawesome"
    },
    {
      "uid": "9bf7e14698cccdca37a6f1a02cf7d79e",
      "css": "female",
      "code": 61826,
      "src": "fontawesome"
    },
    {
      "uid": "c2314ed1d2314b89f9285c53bcbf2548",
      "css": "child",
      "code": 61870,
      "src": "fontawesome"
    },
    {
      "uid": "f9c8ea86275ca16128235c6452b67b8e",
      "css": "user-secret",
      "code": 61979,
      "src": "fontawesome"
    },
    {
      "uid": "872d9516df93eb6b776cc4d94bd97dac",
      "css": "video",
      "code": 59403,
      "src": "fontawesome"
    },
    {
      "uid": "0f99ab40ab0b4d64a74f2d0deeb03e42",
      "css": "videocam",
      "code": 59404,
      "src": "fontawesome"
    },
    {
      "uid": "381da2c2f7fd51f8de877c044d7f439d",
      "css": "picture",
      "code": 59405,
      "src": "fontawesome"
    },
    {
      "uid": "dc3f1d5b1d006f7f7b3b6295eccab9da",
      "css": "camera",
      "code": 59406,
      "src": "fontawesome"
    },
    {
      "uid": "9d3d9d6ce1ec63eaa26281e6162853c9",
      "css": "camera-alt",
      "code": 59407,
      "src": "fontawesome"
    },
    {
      "uid": "dd492243d64e21dfe16a92452f7861cb",
      "css": "th-large",
      "code": 59408,
      "src": "fontawesome"
    },
    {
      "uid": "b1887b423d2fd15c345e090320c91ca0",
      "css": "th",
      "code": 59409,
      "src": "fontawesome"
    },
    {
      "uid": "f805bb95d40c7ef2bc51b3d50d4f2e5c",
      "css": "th-list",
      "code": 59410,
      "src": "fontawesome"
    },
    {
      "uid": "12f4ece88e46abd864e40b35e05b11cd",
      "css": "ok",
      "code": 59411,
      "src": "fontawesome"
    },
    {
      "uid": "43ab845088317bd348dee1d975700c48",
      "css": "ok-circled",
      "code": 59412,
      "src": "fontawesome"
    },
    {
      "uid": "ad33e708f4d2e25c5056c931da1528d6",
      "css": "ok-circled2",
      "code": 59413,
      "src": "fontawesome"
    },
    {
      "uid": "1400d5103edd2fa6d2d61688fee79a5a",
      "css": "ok-squared",
      "code": 61770,
      "src": "fontawesome"
    },
    {
      "uid": "5211af474d3a9848f67f945e2ccaf143",
      "css": "cancel",
      "code": 59414,
      "src": "fontawesome"
    },
    {
      "uid": "0f4cae16f34ae243a6144c18a003f2d8",
      "css": "cancel-circled",
      "code": 59415,
      "src": "fontawesome"
    },
    {
      "uid": "2e2dba0307a502a8507c1729084c7ab5",
      "css": "cancel-circled2",
      "code": 59416,
      "src": "fontawesome"
    },
    {
      "uid": "44e04715aecbca7f266a17d5a7863c68",
      "css": "plus",
      "code": 59417,
      "src": "fontawesome"
    },
    {
      "uid": "4ba33d2607902cf690dd45df09774cb0",
      "css": "plus-circled",
      "code": 59418,
      "src": "fontawesome"
    },
    {
      "uid": "1a5cfa186647e8c929c2b17b9fc4dac1",
      "css": "plus-squared",
      "code": 61694,
      "src": "fontawesome"
    },
    {
      "uid": "2d3be3e856fc1e4ac067590d2ded1b07",
      "css": "plus-squared-alt",
      "code": 61846,
      "src": "fontawesome"
    },
    {
      "uid": "861ab06e455e2de3232ebef67d60d708",
      "css": "minus",
      "code": 59419,
      "src": "fontawesome"
    },
    {
      "uid": "eeadb020bb75d089b25d8424aabe19e0",
      "css": "minus-circled",
      "code": 59428,
      "src": "fontawesome"
    },
    {
      "uid": "f755a58fb985eeb70bd47d9b31892a34",
      "css": "minus-squared",
      "code": 61766,
      "src": "fontawesome"
    },
    {
      "uid": "18ef25350258541e8e54148ed79845c0",
      "css": "minus-squared-alt",
      "code": 61767,
      "src": "fontawesome"
    },
    {
      "uid": "ce3cf091d6ebd004dd0b52d24074e6e3",
      "css": "help",
      "code": 61736,
      "src": "fontawesome"
    },
    {
      "uid": "17ebadd1e3f274ff0205601eef7b9cc4",
      "css": "help-circled",
      "code": 59420,
      "src": "fontawesome"
    },
    {
      "uid": "e82cedfa1d5f15b00c5a81c9bd731ea2",
      "css": "info-circled",
      "code": 59421,
      "src": "fontawesome"
    },
    {
      "uid": "3d4ea8a78dc34efe891f3a0f3d961274",
      "css": "info",
      "code": 61737,
      "src": "fontawesome"
    },
    {
      "uid": "d7271d490b71df4311e32cdacae8b331",
      "css": "home",
      "code": 59422,
      "src": "fontawesome"
    },
    {
      "uid": "0ddd3e8201ccc7d41f7b7c9d27eca6c1",
      "css": "link",
      "code": 59423,
      "src": "fontawesome"
    },
    {
      "uid": "1dcd2b2148b7f086a4eb47f6a746bdee",
      "css": "unlink",
      "code": 61735,
      "src": "fontawesome"
    },
    {
      "uid": "e15f0d620a7897e2035c18c80142f6d9",
      "css": "link-ext",
      "code": 61582,
      "src": "fontawesome"
    },
    {
      "uid": "e35de5ea31cd56970498e33efbcb8e36",
      "css": "link-ext-alt",
      "code": 61772,
      "src": "fontawesome"
    },
    {
      "uid": "0d6ab6194c0eddda2b8c9cedf2ab248e",
      "css": "attach",
      "code": 59424,
      "src": "fontawesome"
    },
    {
      "uid": "c1f1975c885aa9f3dad7810c53b82074",
      "css": "lock",
      "code": 59425,
      "src": "fontawesome"
    },
    {
      "uid": "657ab647f6248a6b57a5b893beaf35a9",
      "css": "lock-open",
      "code": 59426,
      "src": "fontawesome"
    },
    {
      "uid": "05376be04a27d5a46e855a233d6e8508",
      "css": "lock-open-alt",
      "code": 61758,
      "src": "fontawesome"
    },
    {
      "uid": "5b0772e9484a1a11646793a82edd622a",
      "css": "pin",
      "code": 59427,
      "src": "fontawesome"
    },
    {
      "uid": "c5fd349cbd3d23e4ade333789c29c729",
      "css": "eye",
      "code": 59429,
      "src": "fontawesome"
    },
    {
      "uid": "7fd683b2c518ceb9e5fa6757f2276faa",
      "css": "eye-off",
      "code": 59430,
      "src": "fontawesome"
    },
    {
      "uid": "3db5347bd219f3bce6025780f5d9ef45",
      "css": "tag",
      "code": 59431,
      "src": "fontawesome"
    },
    {
      "uid": "a3f89e106175a5c5c4e9738870b12e55",
      "css": "tags",
      "code": 59432,
      "src": "fontawesome"
    },
    {
      "uid": "f04a5d24e9e659145b966739c4fde82a",
      "css": "bookmark",
      "code": 59433,
      "src": "fontawesome"
    },
    {
      "uid": "2f5ef6f6b7aaebc56458ab4e865beff5",
      "css": "bookmark-empty",
      "code": 61591,
      "src": "fontawesome"
    },
    {
      "uid": "57a0ac800df728aad61a7cf9e12f5fef",
      "css": "flag",
      "code": 59434,
      "src": "fontawesome"
    },
    {
      "uid": "6c83092421441296f5c4e8074b0cf32c",
      "css": "flag-empty",
      "code": 61725,
      "src": "fontawesome"
    },
    {
      "uid": "d7a614bd701f6712e8e3b2be124899e1",
      "css": "flag-checkered",
      "code": 61726,
      "src": "fontawesome"
    },
    {
      "uid": "acf41aa4018e58d49525665469e35665",
      "css": "thumbs-up",
      "code": 59435,
      "src": "fontawesome"
    },
    {
      "uid": "7533e68038fc6d520ede7a7ffa0a2f64",
      "css": "thumbs-down",
      "code": 59436,
      "src": "fontawesome"
    },
    {
      "uid": "5e2ab018e3044337bcef5f7e94098ea1",
      "css": "thumbs-up-alt",
      "code": 61796,
      "src": "fontawesome"
    },
    {
      "uid": "ddcd918b502642705838815d40aea9e3",
      "css": "thumbs-down-alt",
      "code": 61797,
      "src": "fontawesome"
    },
    {
      "uid": "9a76bc135eac17d2c8b8ad4a5774fc87",
      "css": "download",
      "code": 59437,
      "src": "fontawesome"
    },
    {
      "uid": "eeec3208c90b7b48e804919d0d2d4a41",
      "css": "upload",
      "code": 59438,
      "src": "fontawesome"
    },
    {
      "uid": "f5999a012fc3752386635ec02a858447",
      "css": "download-cloud",
      "code": 61677,
      "src": "fontawesome"
    },
    {
      "uid": "de2fc7a5c986ab8c622f63455d7cf814",
      "css": "upload-cloud",
      "code": 61678,
      "src": "fontawesome"
    },
    {
      "uid": "c6be5a58ee4e63a5ec399c2b0d15cf2c",
      "css": "reply",
      "code": 61714,
      "src": "fontawesome"
    },
    {
      "uid": "1b5597a3bacaeca6600e88ae36d02e0a",
      "css": "reply-all",
      "code": 61730,
      "src": "fontawesome"
    },
    {
      "uid": "3d39c828009c04ddb6764c0b04cd2439",
      "css": "forward",
      "code": 59439,
      "src": "fontawesome"
    },
    {
      "uid": "ab95e1351ebaec5850101097cbf7097f",
      "css": "quote-left",
      "code": 61709,
      "src": "fontawesome"
    },
    {
      "uid": "d745d7c05b94e609decabade2cae12cb",
      "css": "quote-right",
      "code": 61710,
      "src": "fontawesome"
    },
    {
      "uid": "7034e4d22866af82bef811f52fb1ba46",
      "css": "code",
      "code": 61729,
      "src": "fontawesome"
    },
    {
      "uid": "895405dfac8a3b7b2f23b183c6608ee6",
      "css": "export",
      "code": 59440,
      "src": "fontawesome"
    },
    {
      "uid": "13b9eebfea581ad8e756ee7a18a7cba8",
      "css": "export-alt",
      "code": 61773,
      "src": "fontawesome"
    },
    {
      "uid": "4aad6bb50b02c18508aae9cbe14e784e",
      "css": "share",
      "code": 61920,
      "src": "fontawesome"
    },
    {
      "uid": "4c1f3c0b331d5f72c6a38d7bb7632675",
      "css": "share-squared",
      "code": 61921,
      "src": "fontawesome"
    },
    {
      "uid": "d35a1d35efeb784d1dc9ac18b9b6c2b6",
      "css": "pencil",
      "code": 59441,
      "src": "fontawesome"
    },
    {
      "uid": "44fae3bfdd54754dc68ec50d37efea37",
      "css": "pencil-squared",
      "code": 61771,
      "src": "fontawesome"
    },
    {
      "uid": "41087bc74d4b20b55059c60a33bf4008",
      "css": "edit",
      "code": 59442,
      "src": "fontawesome"
    },
    {
      "uid": "7277ded7695b2a307a5f9d50097bb64c",
      "css": "print",
      "code": 59443,
      "src": "fontawesome"
    },
    {
      "uid": "09feb4465d9bd1364f4e301c9ddbaa92",
      "css": "retweet",
      "code": 59444,
      "src": "fontawesome"
    },
    {
      "uid": "ecb97add13804c190456025e43ec003b",
      "css": "keyboard",
      "code": 61724,
      "src": "fontawesome"
    },
    {
      "uid": "0133387f2069a1b3168942b84d81dd3a",
      "css": "gamepad",
      "code": 61723,
      "src": "fontawesome"
    },
    {
      "uid": "85528017f1e6053b2253785c31047f44",
      "css": "comment",
      "code": 59445,
      "src": "fontawesome"
    },
    {
      "uid": "dcedf50ab1ede3283d7a6c70e2fe32f3",
      "css": "chat",
      "code": 59446,
      "src": "fontawesome"
    },
    {
      "uid": "9c1376672bb4f1ed616fdd78a23667e9",
      "css": "comment-empty",
      "code": 61669,
      "src": "fontawesome"
    },
    {
      "uid": "31951fbb9820ed0690f675b3d495c8da",
      "css": "chat-empty",
      "code": 61670,
      "src": "fontawesome"
    },
    {
      "uid": "cd21cbfb28ad4d903cede582157f65dc",
      "css": "bell",
      "code": 59447,
      "src": "fontawesome"
    },
    {
      "uid": "671f29fa10dda08074a4c6a341bb4f39",
      "css": "bell-alt",
      "code": 61683,
      "src": "fontawesome"
    },
    {
      "uid": "563683020e0bf9f22f3f055a69b5c57a",
      "css": "bell-off",
      "code": 61942,
      "src": "fontawesome"
    },
    {
      "uid": "8a074400a056c59d389f2d0517281bd5",
      "css": "bell-off-empty",
      "code": 61943,
      "src": "fontawesome"
    },
    {
      "uid": "00391fac5d419345ffcccd95b6f76263",
      "css": "attention-alt",
      "code": 61738,
      "src": "fontawesome"
    },
    {
      "uid": "c76b7947c957c9b78b11741173c8349b",
      "css": "attention",
      "code": 59448,
      "src": "fontawesome"
    },
    {
      "uid": "b035c28eba2b35c6ffe92aee8b0df507",
      "css": "attention-circled",
      "code": 59449,
      "src": "fontawesome"
    },
    {
      "uid": "0d08dbb1dd648a43bdea81b7e6c9e036",
      "css": "location",
      "code": 59450,
      "src": "fontawesome"
    },
    {
      "uid": "921e3974e54ff9e8b7cd906a3dc74636",
      "css": "direction",
      "code": 61732,
      "src": "fontawesome"
    },
    {
      "uid": "e5d624264734620fa9f98d59e6dc941f",
      "css": "compass",
      "code": 61774,
      "src": "fontawesome"
    },
    {
      "uid": "bbfb51903f40597f0b70fd75bc7b5cac",
      "css": "trash",
      "code": 61944,
      "src": "fontawesome"
    },
    {
      "uid": "f48ae54adfb27d8ada53d0fd9e34ee10",
      "css": "trash-empty",
      "code": 59451,
      "src": "fontawesome"
    },
    {
      "uid": "1b5a5d7b7e3c71437f5a26befdd045ed",
      "css": "doc",
      "code": 59452,
      "src": "fontawesome"
    },
    {
      "uid": "c8585e1e5b0467f28b70bce765d5840c",
      "css": "docs",
      "code": 61637,
      "src": "fontawesome"
    },
    {
      "uid": "5408be43f7c42bccee419c6be53fdef5",
      "css": "doc-text",
      "code": 61686,
      "src": "fontawesome"
    },
    {
      "uid": "178053298e3e5b03551d754d4b9acd8b",
      "css": "doc-inv",
      "code": 61787,
      "src": "fontawesome"
    },
    {
      "uid": "c08a1cde48d96cba21d8c05fa7d7feb1",
      "css": "doc-text-inv",
      "code": 61788,
      "src": "fontawesome"
    },
    {
      "uid": "9daa1fdf0838118518a7e22715e83abc",
      "css": "file-pdf",
      "code": 61889,
      "src": "fontawesome"
    },
    {
      "uid": "310ffd629da85142bc8669f010556f2d",
      "css": "file-word",
      "code": 61890,
      "src": "fontawesome"
    },
    {
      "uid": "f761c3bbe16ba2d332914ecb28e7a042",
      "css": "file-excel",
      "code": 61891,
      "src": "fontawesome"
    },
    {
      "uid": "edcd4022de8d8df266ef7c42d2658ca5",
      "css": "file-powerpoint",
      "code": 61892,
      "src": "fontawesome"
    },
    {
      "uid": "3c961c1a8d874815856fc6637dc5a13c",
      "css": "file-image",
      "code": 61893,
      "src": "fontawesome"
    },
    {
      "uid": "e80ae555c1413a4ec18b33fb348b4049",
      "css": "file-archive",
      "code": 61894,
      "src": "fontawesome"
    },
    {
      "uid": "81db033e704eb7c586a365559d7c0f36",
      "css": "file-audio",
      "code": 61895,
      "src": "fontawesome"
    },
    {
      "uid": "dd69d9aa589ea7bc0a82a3fe67039f4b",
      "css": "file-video",
      "code": 61896,
      "src": "fontawesome"
    },
    {
      "uid": "26613a2e6bc41593c54bead46f8c8ee3",
      "css": "file-code",
      "code": 61897,
      "src": "fontawesome"
    },
    {
      "uid": "f8aa663c489bcbd6e68ec8147dca841e",
      "css": "folder",
      "code": 59453,
      "src": "fontawesome"
    },
    {
      "uid": "c95735c17a10af81448c7fed98a04546",
      "css": "folder-open",
      "code": 59454,
      "src": "fontawesome"
    },
    {
      "uid": "b091a8bd0fdade174951f17d936f51e4",
      "css": "folder-empty",
      "code": 61716,
      "src": "fontawesome"
    },
    {
      "uid": "6533bdc16ab201eb3f3b27ce989cab33",
      "css": "folder-open-empty",
      "code": 61717,
      "src": "fontawesome"
    },
    {
      "uid": "04ff8d6592fe548b332b27ed87ce397a",
      "css": "box",
      "code": 61831,
      "src": "fontawesome"
    },
    {
      "uid": "72b1277834cba5b7944b0a6cac7ddb0d",
      "css": "rss",
      "code": 61598,
      "src": "fontawesome"
    },
    {
      "uid": "de5f0a564ccf8816325330e292e11533",
      "css": "rss-squared",
      "code": 61763,
      "src": "fontawesome"
    },
    {
      "uid": "9f7e588c66cfd6891f6f507cf6f6596b",
      "css": "phone",
      "code": 59455,
      "src": "fontawesome"
    },
    {
      "uid": "ec488dfd1f548948c09671ca5a60ec92",
      "css": "phone-squared",
      "code": 61592,
      "src": "fontawesome"
    },
    {
      "uid": "5cbe092278ff71fc27c920298b0f3ca3",
      "css": "fax",
      "code": 61868,
      "src": "fontawesome"
    },
    {
      "uid": "559647a6f430b3aeadbecd67194451dd",
      "css": "menu",
      "code": 61641,
      "src": "fontawesome"
    },
    {
      "uid": "e99461abfef3923546da8d745372c995",
      "css": "cog",
      "code": 59456,
      "src": "fontawesome"
    },
    {
      "uid": "98687378abd1faf8f6af97c254eb6cd6",
      "css": "cog-alt",
      "code": 59457,
      "src": "fontawesome"
    },
    {
      "uid": "5bb103cd29de77e0e06a52638527b575",
      "css": "wrench",
      "code": 59458,
      "src": "fontawesome"
    },
    {
      "uid": "21b42d3c3e6be44c3cc3d73042faa216",
      "css": "sliders",
      "code": 61918,
      "src": "fontawesome"
    },
    {
      "uid": "9affc98d652b86628d650ee58dbf0357",
      "css": "basket",
      "code": 59459,
      "src": "fontawesome"
    },
    {
      "uid": "cddbeffea9d90c5db93d5d3e77b8893e",
      "css": "cart-plus",
      "code": 61975,
      "src": "fontawesome"
    },
    {
      "uid": "93c35534e6b079466c4676cdedcdb7c1",
      "css": "cart-arrow-down",
      "code": 61976,
      "src": "fontawesome"
    },
    {
      "uid": "531bc468eecbb8867d822f1c11f1e039",
      "css": "calendar",
      "code": 59460,
      "src": "fontawesome"
    },
    {
      "uid": "ead4c82d04d7758db0f076584893a8c1",
      "css": "calendar-empty",
      "code": 61747,
      "src": "fontawesome"
    },
    {
      "uid": "3a00327e61b997b58518bd43ed83c3df",
      "css": "login",
      "code": 59461,
      "src": "fontawesome"
    },
    {
      "uid": "0d20938846444af8deb1920dc85a29fb",
      "css": "logout",
      "code": 59462,
      "src": "fontawesome"
    },
    {
      "uid": "19c50c52858a81de58f9db488aba77bc",
      "css": "mic",
      "code": 61744,
      "src": "fontawesome"
    },
    {
      "uid": "43c629249e2cca7e73cd4ef410c9551f",
      "css": "mute",
      "code": 61745,
      "src": "fontawesome"
    },
    {
      "uid": "e44601720c64e6bb6a2d5cba6b0c588c",
      "css": "volume-off",
      "code": 59463,
      "src": "fontawesome"
    },
    {
      "uid": "fee6e00f36e8ca8ef3e4a62caa213bf6",
      "css": "volume-down",
      "code": 59464,
      "src": "fontawesome"
    },
    {
      "uid": "76857a03fbaa6857fe063b6c25aa98ed",
      "css": "volume-up",
      "code": 59465,
      "src": "fontawesome"
    },
    {
      "uid": "f27bba41a700af51a4dd23cf4edea61d",
      "css": "headphones",
      "code": 59466,
      "src": "fontawesome"
    },
    {
      "uid": "598a5f2bcf3521d1615de8e1881ccd17",
      "css": "clock",
      "code": 59467,
      "src": "fontawesome"
    },
    {
      "uid": "5278ef7773e948d56c4d442c8c8c98cf",
      "css": "lightbulb",
      "code": 61675,
      "src": "fontawesome"
    },
    {
      "uid": "98d9c83c1ee7c2c25af784b518c522c5",
      "css": "block",
      "code": 59468,
      "src": "fontawesome"
    },
    {
      "uid": "e594fc6e5870b4ab7e49f52571d52577",
      "css": "resize-full",
      "code": 59469,
      "src": "fontawesome"
    },
    {
      "uid": "b013f6403e5ab0326614e68d1850fd6b",
      "css": "resize-full-alt",
      "code": 61618,
      "src": "fontawesome"
    },
    {
      "uid": "3c24ee33c9487bbf18796ca6dffa1905",
      "css": "resize-small",
      "code": 59470,
      "src": "fontawesome"
    },
    {
      "uid": "d3b3f17bc3eb7cd809a07bbd4d178bee",
      "css": "resize-vertical",
      "code": 59471,
      "src": "fontawesome"
    },
    {
      "uid": "3c73d058e4589b65a8d959c0fc8f153d",
      "css": "resize-horizontal",
      "code": 59472,
      "src": "fontawesome"
    },
    {
      "uid": "6605ee6441bf499ffa3c63d3c7409471",
      "css": "move",
      "code": 61511,
      "src": "fontawesome"
    },
    {
      "uid": "0b2b66e526028a6972d51a6f10281b4b",
      "css": "zoom-in",
      "code": 59473,
      "src": "fontawesome"
    },
    {
      "uid": "d25d10efa900f529ad1d275657cfd30e",
      "css": "zoom-out",
      "code": 59474,
      "src": "fontawesome"
    },
    {
      "uid": "c53068fe21c8410b0a098b4c52c3d37e",
      "css": "down-circled2",
      "code": 59475,
      "src": "fontawesome"
    },
    {
      "uid": "128d63150a41800e0beff55235269542",
      "css": "up-circled2",
      "code": 59476,
      "src": "fontawesome"
    },
    {
      "uid": "a65ca48f3fe7d6e5c60edbd943f4fdb6",
      "css": "left-circled2",
      "code": 61840,
      "src": "fontawesome"
    },
    {
      "uid": "d0673ef38e1c458a6de52aad2a2f800d",
      "css": "right-circled2",
      "code": 61838,
      "src": "fontawesome"
    },
    {
      "uid": "2d6150442079cbda7df64522dc24f482",
      "css": "down-dir",
      "code": 59477,
      "src": "fontawesome"
    },
    {
      "uid": "80cd1022bd9ea151d554bec1fa05f2de",
      "css": "up-dir",
      "code": 59478,
      "src": "fontawesome"
    },
    {
      "uid": "9dc654095085167524602c9acc0c5570",
      "css": "left-dir",
      "code": 59479,
      "src": "fontawesome"
    },
    {
      "uid": "fb1c799ffe5bf8fb7f8bcb647c8fe9e6",
      "css": "right-dir",
      "code": 59480,
      "src": "fontawesome"
    },
    {
      "uid": "ccddff8e8670dcd130e3cb55fdfc2fd0",
      "css": "down-open",
      "code": 59481,
      "src": "fontawesome"
    },
    {
      "uid": "d870630ff8f81e6de3958ecaeac532f2",
      "css": "left-open",
      "code": 59482,
      "src": "fontawesome"
    },
    {
      "uid": "399ef63b1e23ab1b761dfbb5591fa4da",
      "css": "right-open",
      "code": 59483,
      "src": "fontawesome"
    },
    {
      "uid": "fe6697b391355dec12f3d86d6d490397",
      "css": "up-open",
      "code": 59484,
      "src": "fontawesome"
    },
    {
      "uid": "f3f90c8c89795da30f7444634476ea4f",
      "css": "angle-left",
      "code": 61700,
      "src": "fontawesome"
    },
    {
      "uid": "7bf14281af5633a597f85b061ef1cfb9",
      "css": "angle-right",
      "code": 61701,
      "src": "fontawesome"
    },
    {
      "uid": "5de9370846a26947e03f63142a3f1c07",
      "css": "angle-up",
      "code": 61702,
      "src": "fontawesome"
    },
    {
      "uid": "e4dde1992f787163e2e2b534b8c8067d",
      "css": "angle-down",
      "code": 61703,
      "src": "fontawesome"
    },
    {
      "uid": "8933c2579166c2ee56ae40dc6a0b4dc6",
      "css": "angle-circled-left",
      "code": 61751,
      "src": "fontawesome"
    },
    {
      "uid": "94089b37297572e936b0943bcfa041d3",
      "css": "angle-circled-right",
      "code": 61752,
      "src": "fontawesome"
    },
    {
      "uid": "8cbd5bcfb00043b8094fd7ac21ae5e06",
      "css": "angle-circled-up",
      "code": 61753,
      "src": "fontawesome"
    },
    {
      "uid": "c35e0796f6f806945a44b1655ce7bbe7",
      "css": "angle-circled-down",
      "code": 61754,
      "src": "fontawesome"
    },
    {
      "uid": "745f12abe1472d14f8f658de7e5aba66",
      "css": "angle-double-left",
      "code": 61696,
      "src": "fontawesome"
    },
    {
      "uid": "fdfbd1fcbd4cb229716a810801a5f207",
      "css": "angle-double-right",
      "code": 61697,
      "src": "fontawesome"
    },
    {
      "uid": "63b3012c8cbe3654ba5bea598235aa3a",
      "css": "angle-double-up",
      "code": 61698,
      "src": "fontawesome"
    },
    {
      "uid": "dfec4ffa849d8594c2e4b86f6320b8a6",
      "css": "angle-double-down",
      "code": 61699,
      "src": "fontawesome"
    },
    {
      "uid": "f06941dfcb90dc24b987d810898c4310",
      "css": "down",
      "code": 61813,
      "src": "fontawesome"
    },
    {
      "uid": "f6d72aa5ef8e8f0e553012af9a29a87e",
      "css": "left",
      "code": 61815,
      "src": "fontawesome"
    },
    {
      "uid": "fb94e23ae1e7660aa63cc5f351ec7560",
      "css": "right",
      "code": 61816,
      "src": "fontawesome"
    },
    {
      "uid": "720f98e7580b7987c8dc542513d1d440",
      "css": "up",
      "code": 61814,
      "src": "fontawesome"
    },
    {
      "uid": "1c4068ed75209e21af36017df8871802",
      "css": "down-big",
      "code": 59485,
      "src": "fontawesome"
    },
    {
      "uid": "555ef8c86832e686fef85f7af2eb7cde",
      "css": "left-big",
      "code": 59486,
      "src": "fontawesome"
    },
    {
      "uid": "ad6b3fbb5324abe71a9c0b6609cbb9f1",
      "css": "right-big",
      "code": 59487,
      "src": "fontawesome"
    },
    {
      "uid": "95376bf082bfec6ce06ea1cda7bd7ead",
      "css": "up-big",
      "code": 59488,
      "src": "fontawesome"
    },
    {
      "uid": "aa0d9175a3919a260a4012d560e9f01e",
      "css": "right-hand",
      "code": 59489,
      "src": "fontawesome"
    },
    {
      "uid": "3d99d345645f43e31e9e0fd48be37e9c",
      "css": "left-hand",
      "code": 59490,
      "src": "fontawesome"
    },
    {
      "uid": "034e645aa3bad56ce68389a816547c87",
      "css": "up-hand",
      "code": 59491,
      "src": "fontawesome"
    },
    {
      "uid": "beb43b8df442eac4b8d35f528d5ed5af",
      "css": "down-hand",
      "code": 59492,
      "src": "fontawesome"
    },
    {
      "uid": "6855131631509e8795730ce062045ea1",
      "css": "left-circled",
      "code": 61608,
      "src": "fontawesome"
    },
    {
      "uid": "19b04848ae7332d2c0ea2a9e19064037",
      "css": "right-circled",
      "code": 61609,
      "src": "fontawesome"
    },
    {
      "uid": "2b8e9b027181aafd210bf29c5486d4a0",
      "css": "up-circled",
      "code": 61610,
      "src": "fontawesome"
    },
    {
      "uid": "55ae6ea25cd707fe34af5b52b2001cdc",
      "css": "down-circled",
      "code": 61611,
      "src": "fontawesome"
    },
    {
      "uid": "bc71f4c6e53394d5ba46b063040014f1",
      "css": "cw",
      "code": 59493,
      "src": "fontawesome"
    },
    {
      "uid": "f9c3205df26e7778abac86183aefdc99",
      "css": "ccw",
      "code": 59494,
      "src": "fontawesome"
    },
    {
      "uid": "a73c5deb486c8d66249811642e5d719a",
      "css": "arrows-cw",
      "code": 59495,
      "src": "fontawesome"
    },
    {
      "uid": "dea706a9bd3144316ce37406ec10f469",
      "css": "level-up",
      "code": 61768,
      "src": "fontawesome"
    },
    {
      "uid": "4684e690bad65fb618329dfe52017475",
      "css": "level-down",
      "code": 61769,
      "src": "fontawesome"
    },
    {
      "uid": "37c5ab63f10d7ad0b84d0978dcd0c7a8",
      "css": "shuffle",
      "code": 59496,
      "src": "fontawesome"
    },
    {
      "uid": "6020aff067fc3c119cdd75daa5249220",
      "css": "exchange",
      "code": 61676,
      "src": "fontawesome"
    },
    {
      "uid": "d4816c0845aa43767213d45574b3b145",
      "css": "history",
      "code": 61914,
      "src": "fontawesome"
    },
    {
      "uid": "84bb9695b8662fa4783242f84c9e4682",
      "css": "expand",
      "code": 61776,
      "src": "fontawesome"
    },
    {
      "uid": "7960517a504e42aea0641f15bc55fbed",
      "css": "collapse",
      "code": 61777,
      "src": "fontawesome"
    },
    {
      "uid": "ed5a38704f0329e610ee1c92bec3ad3d",
      "css": "expand-right",
      "code": 61778,
      "src": "fontawesome"
    },
    {
      "uid": "ea2ec99fbce03864e593bbf4f302a79d",
      "css": "collapse-left",
      "code": 61841,
      "src": "fontawesome"
    },
    {
      "uid": "ce06b5805120d0c2f8d60cd3f1a4fdb5",
      "css": "play",
      "code": 59497,
      "src": "fontawesome"
    },
    {
      "uid": "5717236f6134afe2d2a278a5c9b3927a",
      "css": "play-circled",
      "code": 61764,
      "src": "fontawesome"
    },
    {
      "uid": "e835d9d0f2ee39ae01b01cc6a6fa24ab",
      "css": "play-circled2",
      "code": 59498,
      "src": "fontawesome"
    },
    {
      "uid": "b624a1e512819d410ddbee84e6918b9d",
      "css": "stop",
      "code": 59499,
      "src": "fontawesome"
    },
    {
      "uid": "0b28050bac9d3facf2f0226db643ece0",
      "css": "pause",
      "code": 59500,
      "src": "fontawesome"
    },
    {
      "uid": "c47efa0e3e74f6ba4c2562c1258fff1f",
      "css": "to-end",
      "code": 59501,
      "src": "fontawesome"
    },
    {
      "uid": "7ea35a8fc7e676c78e99cab2d4bc8653",
      "css": "to-end-alt",
      "code": 59502,
      "src": "fontawesome"
    },
    {
      "uid": "12052b30d23a1a70d6b32962d5464cae",
      "css": "to-start",
      "code": 59503,
      "src": "fontawesome"
    },
    {
      "uid": "6b5450145d620234f07ffcbfbb671074",
      "css": "to-start-alt",
      "code": 59504,
      "src": "fontawesome"
    },
    {
      "uid": "4e511190b60f329d08301eb6869c5130",
      "css": "fast-fw",
      "code": 59505,
      "src": "fontawesome"
    },
    {
      "uid": "b3d902fcead809e3a64c7ddcda497a6c",
      "css": "fast-bw",
      "code": 59506,
      "src": "fontawesome"
    },
    {
      "uid": "91b141af48402743aa3503d0a7007132",
      "css": "eject",
      "code": 59507,
      "src": "fontawesome"
    },
    {
      "uid": "e75c54c282c0bf22186c5c7ec4b03eac",
      "css": "target",
      "code": 59508,
      "src": "fontawesome"
    },
    {
      "uid": "d407a4707f719b042ed2ad28d2619d7e",
      "css": "signal",
      "code": 59509,
      "src": "fontawesome"
    },
    {
      "uid": "cd4bfdae4dc89b175ff49330ce29611a",
      "css": "wifi",
      "code": 61931,
      "src": "fontawesome"
    },
    {
      "uid": "ab656e280958018a7859eba9a1eabbc7",
      "css": "award",
      "code": 59510,
      "src": "fontawesome"
    },
    {
      "uid": "757afacc32d82967975cbb3b45cfb41b",
      "css": "desktop",
      "code": 61704,
      "src": "fontawesome"
    },
    {
      "uid": "500fc1f109021e4b1de4deda2f7ed399",
      "css": "laptop",
      "code": 61705,
      "src": "fontawesome"
    },
    {
      "uid": "f001fc3d4daa7da078e8c971e4f36977",
      "css": "tablet",
      "code": 61706,
      "src": "fontawesome"
    },
    {
      "uid": "0357f7abbc0babf43509669f332e41e6",
      "css": "mobile",
      "code": 61707,
      "src": "fontawesome"
    },
    {
      "uid": "c7a75a25880928fe76981a53eca4f926",
      "css": "inbox",
      "code": 59511,
      "src": "fontawesome"
    },
    {
      "uid": "197375a3cea8cb90b02d06e4ddf1433d",
      "css": "globe",
      "code": 59512,
      "src": "fontawesome"
    },
    {
      "uid": "aa035df0908c4665c269b7b09a5596f3",
      "css": "sun",
      "code": 61829,
      "src": "fontawesome"
    },
    {
      "uid": "2c413e78faf1d6631fd7b094d14c2253",
      "css": "cloud",
      "code": 59513,
      "src": "fontawesome"
    },
    {
      "uid": "3212f42c65d41ed91cb435d0490e29ed",
      "css": "flash",
      "code": 59514,
      "src": "fontawesome"
    },
    {
      "uid": "567e3e257f2cc8fba2c12bf691c9f2d8",
      "css": "moon",
      "code": 61830,
      "src": "fontawesome"
    },
    {
      "uid": "24ca41ab002c09de6e89b28f9d599508",
      "css": "umbrella",
      "code": 59515,
      "src": "fontawesome"
    },
    {
      "uid": "297fe6c2ef08198b03d706ba52f51b7f",
      "css": "flight",
      "code": 59516,
      "src": "fontawesome"
    },
    {
      "uid": "cb36cbe4e2dac9545e32c3d80a7c6e03",
      "css": "fighter-jet",
      "code": 61691,
      "src": "fontawesome"
    },
    {
      "uid": "38575a803c4da31ce20d77e1e1236bcb",
      "css": "paper-plane",
      "code": 61912,
      "src": "fontawesome"
    },
    {
      "uid": "4b2321afcbe0505a70b80abd5c25e09b",
      "css": "paper-plane-empty",
      "code": 61913,
      "src": "fontawesome"
    },
    {
      "uid": "d650df2fd7c4e27d9185d90a1c12a881",
      "css": "space-shuttle",
      "code": 61847,
      "src": "fontawesome"
    },
    {
      "uid": "19e7b342a5e6bd0cd86de6d6208486a4",
      "css": "leaf",
      "code": 59517,
      "src": "fontawesome"
    },
    {
      "uid": "f9cbf7508cd04145ade2800169959eef",
      "css": "font",
      "code": 59518,
      "src": "fontawesome"
    },
    {
      "uid": "02cca871bb69da75e8ee286b7055832c",
      "css": "bold",
      "code": 59519,
      "src": "fontawesome"
    },
    {
      "uid": "bf09b1c6561dc0ced707476e2cd83d29",
      "css": "medium",
      "code": 62010,
      "src": "fontawesome"
    },
    {
      "uid": "a8cb1c217f02b073db3670c061cc54d2",
      "css": "italic",
      "code": 59520,
      "src": "fontawesome"
    },
    {
      "uid": "0c708edd8fae2376b3370aa56d40cf9e",
      "css": "header",
      "code": 61916,
      "src": "fontawesome"
    },
    {
      "uid": "c5845105a87df2ee1999826d90622f6a",
      "css": "paragraph",
      "code": 61917,
      "src": "fontawesome"
    },
    {
      "uid": "c009d417f87d6a27bb5a1cefd30b6cbd",
      "css": "text-height",
      "code": 59521,
      "src": "fontawesome"
    },
    {
      "uid": "13a971bcccd2dda26d4d4eccd8593f8a",
      "css": "text-width",
      "code": 59522,
      "src": "fontawesome"
    },
    {
      "uid": "f4f0e849b805be1f6d76b65581cb3b8b",
      "css": "align-left",
      "code": 59523,
      "src": "fontawesome"
    },
    {
      "uid": "ae6336c46d73af999fe7460c089abb4d",
      "css": "align-center",
      "code": 59524,
      "src": "fontawesome"
    },
    {
      "uid": "e1e7306b47c3c5e6faecce9d32571381",
      "css": "align-right",
      "code": 59525,
      "src": "fontawesome"
    },
    {
      "uid": "25a81737628d1e654a30ad412d7d6dd7",
      "css": "align-justify",
      "code": 59526,
      "src": "fontawesome"
    },
    {
      "uid": "48b87105bd38c20315f1b705b8c7b38c",
      "css": "list",
      "code": 59527,
      "src": "fontawesome"
    },
    {
      "uid": "594e9271c08ff732c04b3bf3117b9040",
      "css": "indent-left",
      "code": 59528,
      "src": "fontawesome"
    },
    {
      "uid": "4d2dfc45d8176b1f26aed973fa84a91e",
      "css": "indent-right",
      "code": 59529,
      "src": "fontawesome"
    },
    {
      "uid": "a2a74f5e7b7d9ba054897d8c795a326a",
      "css": "list-bullet",
      "code": 61642,
      "src": "fontawesome"
    },
    {
      "uid": "f6766a8b042c2453a4e153af03294383",
      "css": "list-numbered",
      "code": 61643,
      "src": "fontawesome"
    },
    {
      "uid": "61c242c9e2134d5864d7fdd57b3c9289",
      "css": "strike",
      "code": 61644,
      "src": "fontawesome"
    },
    {
      "uid": "d4a4a38a40b728f46dad1de4ac950231",
      "css": "underline",
      "code": 61645,
      "src": "fontawesome"
    },
    {
      "uid": "4e88371fb8857dacc1f66afe6314e426",
      "css": "superscript",
      "code": 61739,
      "src": "fontawesome"
    },
    {
      "uid": "3d1c929dbc966992185ce749548c1b2c",
      "css": "subscript",
      "code": 61740,
      "src": "fontawesome"
    },
    {
      "uid": "8fb55fd696d9a0f58f3b27c1d8633750",
      "css": "table",
      "code": 61646,
      "src": "fontawesome"
    },
    {
      "uid": "53dd31a6cc6438192b2d7b09b1c1dd45",
      "css": "columns",
      "code": 61659,
      "src": "fontawesome"
    },
    {
      "uid": "09bdae120f85e79f2db16145a9e1f6d8",
      "css": "crop",
      "code": 61733,
      "src": "fontawesome"
    },
    {
      "uid": "8772331a9fec983cdb5d72902a6f9e0e",
      "css": "scissors",
      "code": 59530,
      "src": "fontawesome"
    },
    {
      "uid": "b429436ec5a518c78479d44ef18dbd60",
      "css": "paste",
      "code": 61674,
      "src": "fontawesome"
    },
    {
      "uid": "053b757d97042e1c94276200c7b64b91",
      "css": "briefcase",
      "code": 59531,
      "src": "fontawesome"
    },
    {
      "uid": "5ccf1ed249fd9d723ec1ce8629a9f507",
      "css": "suitcase",
      "code": 61682,
      "src": "fontawesome"
    },
    {
      "uid": "107ce08c7231097c7447d8f4d059b55f",
      "css": "ellipsis",
      "code": 61761,
      "src": "fontawesome"
    },
    {
      "uid": "750058837a91edae64b03d60fc7e81a7",
      "css": "ellipsis-vert",
      "code": 61762,
      "src": "fontawesome"
    },
    {
      "uid": "8b9e6a8dd8f67f7c003ed8e7e5ee0857",
      "css": "off",
      "code": 59532,
      "src": "fontawesome"
    },
    {
      "uid": "ecede48deb16179e5ef9a3f8ffae62f4",
      "css": "road",
      "code": 59533,
      "src": "fontawesome"
    },
    {
      "uid": "c819c6225685bae2eed1b8da13e629fa",
      "css": "list-alt",
      "code": 59534,
      "src": "fontawesome"
    },
    {
      "uid": "fd45bb961d08f9f2092f0df3fba29fe9",
      "css": "qrcode",
      "code": 59535,
      "src": "fontawesome"
    },
    {
      "uid": "aa991e8e66ac54b33f0a4b0555597b08",
      "css": "barcode",
      "code": 59536,
      "src": "fontawesome"
    },
    {
      "uid": "9755f76110ae4d12ac5f9466c9152031",
      "css": "book",
      "code": 59537,
      "src": "fontawesome"
    },
    {
      "uid": "ca90da02d2c6a3183f2458e4dc416285",
      "css": "adjust",
      "code": 59538,
      "src": "fontawesome"
    },
    {
      "uid": "83458acd9f38d03ec0226ce82a83c0f4",
      "css": "tint",
      "code": 59539,
      "src": "fontawesome"
    },
    {
      "uid": "2a4e6c99b732a57da40e32fa2a7800a4",
      "css": "toggle-off",
      "code": 61956,
      "src": "fontawesome"
    },
    {
      "uid": "3256ef03b16e7ab51235bc7378b53bb5",
      "css": "toggle-on",
      "code": 61957,
      "src": "fontawesome"
    },
    {
      "uid": "dd6c6b221a1088ff8a9b9cd32d0b3dd5",
      "css": "check",
      "code": 59540,
      "src": "fontawesome"
    },
    {
      "uid": "4b900d04e8ab8c82f080c1cfbac5772c",
      "css": "check-empty",
      "code": 61590,
      "src": "fontawesome"
    },
    {
      "uid": "130380e481a7defc690dfb24123a1f0c",
      "css": "circle",
      "code": 61713,
      "src": "fontawesome"
    },
    {
      "uid": "422e07e5afb80258a9c4ed1706498f8a",
      "css": "circle-empty",
      "code": 61708,
      "src": "fontawesome"
    },
    {
      "uid": "5774d0a0e50f6eefc8be01bd761e5dd3",
      "css": "circle-thin",
      "code": 61915,
      "src": "fontawesome"
    },
    {
      "uid": "4ffd8122933b9ee0183b925e1554969f",
      "css": "circle-notch",
      "code": 61902,
      "src": "fontawesome"
    },
    {
      "uid": "81bb68665e8e595505272a746db07c7a",
      "css": "dot-circled",
      "code": 61842,
      "src": "fontawesome"
    },
    {
      "uid": "823a9e02e643318116fea40a00190e4e",
      "css": "asterisk",
      "code": 59541,
      "src": "fontawesome"
    },
    {
      "uid": "28f308aa0a07a67433f54c089c400d82",
      "css": "gift",
      "code": 59542,
      "src": "fontawesome"
    },
    {
      "uid": "254077e7c0a9e6d303b32f9c35b96a40",
      "css": "fire",
      "code": 59543,
      "src": "fontawesome"
    },
    {
      "uid": "d20912c814d0ff9a7fd27ed1f54813cc",
      "css": "magnet",
      "code": 59544,
      "src": "fontawesome"
    },
    {
      "uid": "266d5d9adf15a61800477a5acf9a4462",
      "css": "chart-bar",
      "code": 59545,
      "src": "fontawesome"
    },
    {
      "uid": "7d1ca956f4181a023de4b9efbed92524",
      "css": "chart-area",
      "code": 61950,
      "src": "fontawesome"
    },
    {
      "uid": "554ee96588a6c9ee632624cd051fe6fc",
      "css": "chart-pie",
      "code": 61952,
      "src": "fontawesome"
    },
    {
      "uid": "ea2d9a8c51ca42b38ef0d2a07f16d9a7",
      "css": "chart-line",
      "code": 61953,
      "src": "fontawesome"
    },
    {
      "uid": "d6fcb9886485b0bdb41b94521e7a3311",
      "css": "ticket",
      "code": 61765,
      "src": "fontawesome"
    },
    {
      "uid": "3d8cc269fdad8a4cda55a20542a84e5c",
      "css": "credit-card",
      "code": 59546,
      "src": "fontawesome"
    },
    {
      "uid": "f4445feb55521283572ee88bc304f928",
      "css": "floppy",
      "code": 59547,
      "src": "fontawesome"
    },
    {
      "uid": "3e674995cacc2b09692c096ea7eb6165",
      "css": "megaphone",
      "code": 59548,
      "src": "fontawesome"
    },
    {
      "uid": "795efd07cd5205b589c883916a76cff0",
      "css": "hdd",
      "code": 61600,
      "src": "fontawesome"
    },
    {
      "uid": "f2aa28a2548ed3d2be718d087b65ee21",
      "css": "key",
      "code": 59549,
      "src": "fontawesome"
    },
    {
      "uid": "bc4b94dd7a9a1dd2e02f9e4648062596",
      "css": "fork",
      "code": 61734,
      "src": "fontawesome"
    },
    {
      "uid": "8aa99bc60f3553bb3e31b73dd6e744c8",
      "css": "rocket",
      "code": 61749,
      "src": "fontawesome"
    },
    {
      "uid": "7432077e6a2d6aa19984ca821bb6bbda",
      "css": "bug",
      "code": 61832,
      "src": "fontawesome"
    },
    {
      "uid": "d61be837c725a299b432dcbee2ecdae6",
      "css": "certificate",
      "code": 61603,
      "src": "fontawesome"
    },
    {
      "uid": "9396b2d8849e0213a0f11c5fd7fcc522",
      "css": "tasks",
      "code": 61614,
      "src": "fontawesome"
    },
    {
      "uid": "4109c474ff99cad28fd5a2c38af2ec6f",
      "css": "filter",
      "code": 61616,
      "src": "fontawesome"
    },
    {
      "uid": "0f444c61b0d2c9966016d7ddb12f5837",
      "css": "beaker",
      "code": 61635,
      "src": "fontawesome"
    },
    {
      "uid": "ff70f7b3228702e0d590e60ed3b90bea",
      "css": "magic",
      "code": 61648,
      "src": "fontawesome"
    },
    {
      "uid": "9937d762aee170b7350b15dd02dd34a3",
      "css": "cab",
      "code": 61881,
      "src": "fontawesome"
    },
    {
      "uid": "5eacf9f8805e2c0bc306dcd1e709db16",
      "css": "taxi",
      "code": 61882,
      "src": "fontawesome"
    },
    {
      "uid": "7f3d8ff1d5f6ee019f0c00ed7a86caec",
      "css": "truck",
      "code": 59550,
      "src": "fontawesome"
    },
    {
      "uid": "5b17c7263caa553039655f2fef81ecaf",
      "css": "bus",
      "code": 61959,
      "src": "fontawesome"
    },
    {
      "uid": "891d861cffd152a6474f01e77716d44e",
      "css": "bicycle",
      "code": 61958,
      "src": "fontawesome"
    },
    {
      "uid": "326dd5dc5899787161184614d04a50b9",
      "css": "motorcycle",
      "code": 61980,
      "src": "fontawesome"
    },
    {
      "uid": "4df54de7f9081aefcc1476068d4464e9",
      "css": "train",
      "code": 62008,
      "src": "fontawesome"
    },
    {
      "uid": "26667777684de4808cedd3783834356f",
      "css": "subway",
      "code": 62009,
      "src": "fontawesome"
    },
    {
      "uid": "3bf0956ae356f79d805fb17f4a523f24",
      "css": "ship",
      "code": 61978,
      "src": "fontawesome"
    },
    {
      "uid": "f279f25007794fa6837ff78fe94b216e",
      "css": "money",
      "code": 61654,
      "src": "fontawesome"
    },
    {
      "uid": "486b835e9eebf54eee78ed12b4291b86",
      "css": "euro",
      "code": 61779,
      "src": "fontawesome"
    },
    {
      "uid": "9854f7f091bd4fdf9b8735ed66667b9d",
      "css": "pound",
      "code": 61780,
      "src": "fontawesome"
    },
    {
      "uid": "026007bd17bfc67f3fe013199676f620",
      "css": "dollar",
      "code": 61781,
      "src": "fontawesome"
    },
    {
      "uid": "62e4fa2c664818d20ce4740cadbf9aeb",
      "css": "rupee",
      "code": 61782,
      "src": "fontawesome"
    },
    {
      "uid": "5f61f8a682b77d2529296a8061bf9597",
      "css": "yen",
      "code": 61783,
      "src": "fontawesome"
    },
    {
      "uid": "243424d56528e83e4fe9ef6e6347a2ef",
      "css": "rouble",
      "code": 61784,
      "src": "fontawesome"
    },
    {
      "uid": "589ae2cbc6d95cc74eb2dbd3fa9c9bcd",
      "css": "shekel",
      "code": 61963,
      "src": "fontawesome"
    },
    {
      "uid": "7f5801d1e299b445ad0090b0a9e94bcb",
      "css": "try",
      "code": 61845,
      "src": "fontawesome"
    },
    {
      "uid": "82f0dc5149d842219e45000bebd683fb",
      "css": "won",
      "code": 61785,
      "src": "fontawesome"
    },
    {
      "uid": "2cb15eb2b295ee3c33fab1530e18a924",
      "css": "bitcoin",
      "code": 61786,
      "src": "fontawesome"
    },
    {
      "uid": "77b6b5ad1966970971c43e40e8d10772",
      "css": "viacoin",
      "code": 62007,
      "src": "fontawesome"
    },
    {
      "uid": "56a21935a5d4d79b2e91ec00f760b369",
      "css": "sort",
      "code": 61660,
      "src": "fontawesome"
    },
    {
      "uid": "94103e1b3f1e8cf514178ec5912b4469",
      "css": "sort-down",
      "code": 61661,
      "src": "fontawesome"
    },
    {
      "uid": "65b3ce930627cabfb6ac81ac60ec5ae4",
      "css": "sort-up",
      "code": 61662,
      "src": "fontawesome"
    },
    {
      "uid": "0cd2582b8c93719d066ee0affd02ac78",
      "css": "sort-alt-up",
      "code": 61792,
      "src": "fontawesome"
    },
    {
      "uid": "27b13eff5eb0ca15e01a6e65ffe6eeec",
      "css": "sort-alt-down",
      "code": 61793,
      "src": "fontawesome"
    },
    {
      "uid": "3ed68ae14e9cde775121954242a412b2",
      "css": "sort-name-up",
      "code": 61789,
      "src": "fontawesome"
    },
    {
      "uid": "6586267200a42008a9fc0a1bf7ac06c7",
      "css": "sort-name-down",
      "code": 61790,
      "src": "fontawesome"
    },
    {
      "uid": "3a7b6876c1817ce3b801b86c04a9d0af",
      "css": "sort-number-up",
      "code": 61794,
      "src": "fontawesome"
    },
    {
      "uid": "b04fc30546f597a7e0a14715e6fc81ff",
      "css": "sort-number-down",
      "code": 61795,
      "src": "fontawesome"
    },
    {
      "uid": "dec0ce0476433f7e49e096526cf89465",
      "css": "hammer",
      "code": 59551,
      "src": "fontawesome"
    },
    {
      "uid": "0bda4bc779d4c32623dec2e43bd67ee8",
      "css": "gauge",
      "code": 61668,
      "src": "fontawesome"
    },
    {
      "uid": "6fe95ffc3c807e62647d4f814a96e0d7",
      "css": "sitemap",
      "code": 61672,
      "src": "fontawesome"
    },
    {
      "uid": "cda0cdcfd38f5f1d9255e722dad42012",
      "css": "spinner",
      "code": 61712,
      "src": "fontawesome"
    },
    {
      "uid": "3a26448b711645ba1abfc86c1a6e2f30",
      "css": "coffee",
      "code": 61684,
      "src": "fontawesome"
    },
    {
      "uid": "30b79160618d99ce798e4bd11cafe3fe",
      "css": "food",
      "code": 61685,
      "src": "fontawesome"
    },
    {
      "uid": "890bcc8897cce868f6ee65cadadde036",
      "css": "beer",
      "code": 61692,
      "src": "fontawesome"
    },
    {
      "uid": "9e8430ce95f56720ae8e7afba291df88",
      "css": "user-md",
      "code": 61680,
      "src": "fontawesome"
    },
    {
      "uid": "5590d2f643b64d2d0757ae660f9c24cb",
      "css": "stethoscope",
      "code": 61681,
      "src": "fontawesome"
    },
    {
      "uid": "d84a06c5ce6da9ebdc9b0a5cb94db4c4",
      "css": "heartbeat",
      "code": 61982,
      "src": "fontawesome"
    },
    {
      "uid": "6dbf07228006788a96eb6244b3591970",
      "css": "ambulance",
      "code": 61689,
      "src": "fontawesome"
    },
    {
      "uid": "46120eb259799eab0dac0691137e5706",
      "css": "medkit",
      "code": 61690,
      "src": "fontawesome"
    },
    {
      "uid": "6f41d9b99564a01f1fde503b7f03bf1a",
      "css": "h-sigh",
      "code": 61693,
      "src": "fontawesome"
    },
    {
      "uid": "df9d9b2fb366c10427ffb727943db912",
      "css": "bed",
      "code": 62006,
      "src": "fontawesome"
    },
    {
      "uid": "c4adaacece4c6341a9ae1816f5ea500c",
      "css": "hospital",
      "code": 61688,
      "src": "fontawesome"
    },
    {
      "uid": "3d1e04316a48ace4e2b81be58343a41c",
      "css": "building",
      "code": 61687,
      "src": "fontawesome"
    },
    {
      "uid": "ede2ea0a583f662b79fbb181b428c20d",
      "css": "building-filled",
      "code": 61869,
      "src": "fontawesome"
    },
    {
      "uid": "8c0ffa714cecbf5144e022d9c3df4a1f",
      "css": "bank",
      "code": 61852,
      "src": "fontawesome"
    },
    {
      "uid": "d862a10e1448589215be19702f98f2c1",
      "css": "smile",
      "code": 61720,
      "src": "fontawesome"
    },
    {
      "uid": "06ddc67d609c477cd5524a7238d7850d",
      "css": "frown",
      "code": 61721,
      "src": "fontawesome"
    },
    {
      "uid": "2c5055a9c9723725f49f0593a08535af",
      "css": "meh",
      "code": 61722,
      "src": "fontawesome"
    },
    {
      "uid": "7a9d73c640892d4b917c706ad95d6fec",
      "css": "anchor",
      "code": 61757,
      "src": "fontawesome"
    },
    {
      "uid": "fa10777b2d88cc64cd6e4f26ef0e5264",
      "css": "terminal",
      "code": 61728,
      "src": "fontawesome"
    },
    {
      "uid": "ebc57fa8400e4ede049ac5dc665210e1",
      "css": "eraser",
      "code": 61741,
      "src": "fontawesome"
    },
    {
      "uid": "5f0f183e241d15cbe486bff88b188dff",
      "css": "puzzle",
      "code": 61742,
      "src": "fontawesome"
    },
    {
      "uid": "44a0e2660ac966cdfaa04deb6aac51df",
      "css": "shield",
      "code": 61746,
      "src": "fontawesome"
    },
    {
      "uid": "1e7648f03fbdc28114a00b33b059b499",
      "css": "extinguisher",
      "code": 61748,
      "src": "fontawesome"
    },
    {
      "uid": "c92ad3028acce9d51bae0ac82f5de8a2",
      "css": "bullseye",
      "code": 61760,
      "src": "fontawesome"
    },
    {
      "uid": "8a67014b864fb93503348593979ddce3",
      "css": "wheelchair",
      "code": 61843,
      "src": "fontawesome"
    },
    {
      "uid": "4fc9b8c122d1b5ca3df42a104a655e8b",
      "css": "language",
      "code": 61867,
      "src": "fontawesome"
    },
    {
      "uid": "20fc52f9a88bb7bda023ef209acac095",
      "css": "graduation-cap",
      "code": 61853,
      "src": "fontawesome"
    },
    {
      "uid": "55605ca79a65def1a9c300037ff1d0d5",
      "css": "paw",
      "code": 61872,
      "src": "fontawesome"
    },
    {
      "uid": "3964e28e6bdf85b3b70df3533db69867",
      "css": "spoon",
      "code": 61873,
      "src": "fontawesome"
    },
    {
      "uid": "fbede3c5584282a0e9b131926dff71da",
      "css": "cube",
      "code": 61874,
      "src": "fontawesome"
    },
    {
      "uid": "af95ef0ddda80a78828c62d386506433",
      "css": "cubes",
      "code": 61875,
      "src": "fontawesome"
    },
    {
      "uid": "288f930b765216bc04e475740331bdf5",
      "css": "recycle",
      "code": 61880,
      "src": "fontawesome"
    },
    {
      "uid": "88da60b3a17e5744695682833a178e73",
      "css": "tree",
      "code": 61883,
      "src": "fontawesome"
    },
    {
      "uid": "347c38a8b96a509270fdcabc951e7571",
      "css": "database",
      "code": 61888,
      "src": "fontawesome"
    },
    {
      "uid": "d59ff824282fc6edaeca991deab522aa",
      "css": "server",
      "code": 62003,
      "src": "fontawesome"
    },
    {
      "uid": "ebffa4e734c8379ffee4fbfe49264d94",
      "css": "lifebuoy",
      "code": 61901,
      "src": "fontawesome"
    },
    {
      "uid": "c53415fbd2695033bd7180d7a9ed4934",
      "css": "rebel",
      "code": 61904,
      "src": "fontawesome"
    },
    {
      "uid": "6632ce1019f9115842335622cb55f4e7",
      "css": "empire",
      "code": 61905,
      "src": "fontawesome"
    },
    {
      "uid": "49ef53dc31aa9442d77f6ba4f559b528",
      "css": "bomb",
      "code": 61922,
      "src": "fontawesome"
    },
    {
      "uid": "cf62866c0cfe3dd14455b381c724f8e1",
      "css": "soccer-ball",
      "code": 61923,
      "src": "fontawesome"
    },
    {
      "uid": "3e1c9aac91dc062dc1af383d43f58ac5",
      "css": "tty",
      "code": 61924,
      "src": "fontawesome"
    },
    {
      "uid": "73ffeb70554099177620847206c12457",
      "css": "binoculars",
      "code": 61925,
      "src": "fontawesome"
    },
    {
      "uid": "a14be0c7e0689076e2bdde97f8e309f9",
      "css": "plug",
      "code": 61926,
      "src": "fontawesome"
    },
    {
      "uid": "032bd8bbd70adf90ead98b6813bfe446",
      "css": "newspaper",
      "code": 61930,
      "src": "fontawesome"
    },
    {
      "uid": "1ee2aeb352153a403df4b441a8bc9bda",
      "css": "calc",
      "code": 61932,
      "src": "fontawesome"
    },
    {
      "uid": "4a74a0f87d4089efe7aba1825bff4193",
      "css": "copyright",
      "code": 61945,
      "src": "fontawesome"
    },
    {
      "uid": "33194d4a025fbf12baca54579afe4c8e",
      "css": "at",
      "code": 61946,
      "src": "fontawesome"
    },
    {
      "uid": "88e6faa0f633ee23667f815689e82af3",
      "css": "eyedropper",
      "code": 61947,
      "src": "fontawesome"
    },
    {
      "uid": "fa9a0b7e788c2d78e24cef1de6b70e80",
      "css": "brush",
      "code": 61948,
      "src": "fontawesome"
    },
    {
      "uid": "bc61ebcf2f5d8d08b1e9e62167df7617",
      "css": "birthday",
      "code": 61949,
      "src": "fontawesome"
    },
    {
      "uid": "f85affb51c357be83d187344c8c6e35c",
      "css": "diamond",
      "code": 61977,
      "src": "fontawesome"
    },
    {
      "uid": "3c7eb0c1678e6fa93cc4264bad3150d6",
      "css": "street-view",
      "code": 61981,
      "src": "fontawesome"
    },
    {
      "uid": "95501182783a570088194c41bc63543b",
      "css": "venus",
      "code": 61985,
      "src": "fontawesome"
    },
    {
      "uid": "5d5d8995aa777cb59c88671e89ab5ced",
      "css": "mars",
      "code": 61986,
      "src": "fontawesome"
    },
    {
      "uid": "c3c269bbbf641affca7e52beb39f7909",
      "css": "mercury",
      "code": 61987,
      "src": "fontawesome"
    },
    {
      "uid": "d589e468da8556b0701206cfdfcfc567",
      "css": "transgender",
      "code": 61988,
      "src": "fontawesome"
    },
    {
      "uid": "5a77a57792f5bfd20fb80827af089d17",
      "css": "transgender-alt",
      "code": 61989,
      "src": "fontawesome"
    },
    {
      "uid": "6c6165b9b97c471cc4c6366f9cf84537",
      "css": "venus-double",
      "code": 61990,
      "src": "fontawesome"
    },
    {
      "uid": "3bc42da674bdbebcb6471ceb42966d33",
      "css": "mars-double",
      "code": 61991,
      "src": "fontawesome"
    },
    {
      "uid": "4ced65e721620e2b3e77b02d54af4100",
      "css": "venus-mars",
      "code": 61992,
      "src": "fontawesome"
    },
    {
      "uid": "6d4f6e98584c8b8ec08bd47a96ed86c4",
      "css": "mars-stroke",
      "code": 61993,
      "src": "fontawesome"
    },
    {
      "uid": "4162b5adba555571ca1be76baa365b9c",
      "css": "mars-stroke-v",
      "code": 61994,
      "src": "fontawesome"
    },
    {
      "uid": "10bd8ed7a393f773e81d145ad5523beb",
      "css": "mars-stroke-h",
      "code": 61995,
      "src": "fontawesome"
    },
    {
      "uid": "14896a85fab311b3a5a9b614fe8c6874",
      "css": "neuter",
      "code": 61996,
      "src": "fontawesome"
    },
    {
      "uid": "e3ed188ab8569b45cf41e74ce81aa86e",
      "css": "cc-visa",
      "code": 61936,
      "src": "fontawesome"
    },
    {
      "uid": "4b1bfce8593a2c1c7d60b9145ada2adf",
      "css": "cc-mastercard",
      "code": 61937,
      "src": "fontawesome"
    },
    {
      "uid": "6413682e05e1c65d13cb76fbca6d67e1",
      "css": "cc-discover",
      "code": 61938,
      "src": "fontawesome"
    },
    {
      "uid": "4e7a8235533632f4df7ba7a2c68cd39d",
      "css": "cc-amex",
      "code": 61939,
      "src": "fontawesome"
    },
    {
      "uid": "b83f99fd47bff831e25255c9bbbbabe7",
      "css": "cc-paypal",
      "code": 61940,
      "src": "fontawesome"
    },
    {
      "uid": "9698d35be5c118ec7521a98130fddc67",
      "css": "cc-stripe",
      "code": 61941,
      "src": "fontawesome"
    },
    {
      "uid": "ef98b489bfb943225e6761cfa9999e9b",
      "css": "adn",
      "code": 61808,
      "src": "fontawesome"
    },
    {
      "uid": "809f2374b759f5b9278ac6307e690ba4",
      "css": "android",
      "code": 61819,
      "src": "fontawesome"
    },
    {
      "uid": "3fb64dab2b2e0a6cefa161387250c620",
      "css": "angellist",
      "code": 61961,
      "src": "fontawesome"
    },
    {
      "uid": "e9fa538fd5913046497ac148e27cd8ea",
      "css": "apple",
      "code": 61817,
      "src": "fontawesome"
    },
    {
      "uid": "aa58e30c7196b1378a6ca78c025cc3b5",
      "css": "behance",
      "code": 61876,
      "src": "fontawesome"
    },
    {
      "uid": "b501bc7737850366e98043c585163eec",
      "css": "behance-squared",
      "code": 61877,
      "src": "fontawesome"
    },
    {
      "uid": "169f51b7e405de8c03cf85a6e8c740ab",
      "css": "bitbucket",
      "code": 61809,
      "src": "fontawesome"
    },
    {
      "uid": "4ae56c66a1f93e28b8d4f866db2b018a",
      "css": "bitbucket-squared",
      "code": 61810,
      "src": "fontawesome"
    },
    {
      "uid": "18d3287c351d9799fedb221e4923b2d2",
      "css": "buysellads",
      "code": 61965,
      "src": "fontawesome"
    },
    {
      "uid": "66faf6c4e3b0e4e33f06171e30253e26",
      "css": "cc",
      "code": 61962,
      "src": "fontawesome"
    },
    {
      "uid": "76675011e906d50af404186b489fc76f",
      "css": "codeopen",
      "code": 61899,
      "src": "fontawesome"
    },
    {
      "uid": "aa4ded7a2d22e21c3cfe775efe267120",
      "css": "connectdevelop",
      "code": 61966,
      "src": "fontawesome"
    },
    {
      "uid": "01c946ce2ed5500e0a918f2b3a7d1923",
      "css": "css3",
      "code": 61756,
      "src": "fontawesome"
    },
    {
      "uid": "71e046578954f177921bcf5b241d0d95",
      "css": "dashcube",
      "code": 61968,
      "src": "fontawesome"
    },
    {
      "uid": "6975c4c656d41a0283d9c52516bf38ed",
      "css": "delicious",
      "code": 61861,
      "src": "fontawesome"
    },
    {
      "uid": "54fad985c676a007c79c346ebaec29d6",
      "css": "deviantart",
      "code": 61885,
      "src": "fontawesome"
    },
    {
      "uid": "ef0e69c3275e8c845aca69a79900092d",
      "css": "digg",
      "code": 61862,
      "src": "fontawesome"
    },
    {
      "uid": "199c44bca402ec5a6351f75ba5228375",
      "css": "dribbble",
      "code": 61821,
      "src": "fontawesome"
    },
    {
      "uid": "9e34a047fee949eae9b6e613d790d6cf",
      "css": "dropbox",
      "code": 61803,
      "src": "fontawesome"
    },
    {
      "uid": "d16ba9078d51e79b5ad6af0235adbd54",
      "css": "drupal",
      "code": 61865,
      "src": "fontawesome"
    },
    {
      "uid": "8e04c98c8f5ca0a035776e3001ad2638",
      "css": "facebook",
      "code": 61594,
      "src": "fontawesome"
    },
    {
      "uid": "4743b088aa95d6f3b6b990e770d3b647",
      "css": "facebook-squared",
      "code": 62216,
      "src": "fontawesome"
    },
    {
      "uid": "6cc7af3e5b55720bcb6ef68372ce24be",
      "css": "facebook-official",
      "code": 62000,
      "src": "fontawesome"
    },
    {
      "uid": "649004fb1ed50395a33c3780236ba8aa",
      "css": "flickr",
      "code": 61806,
      "src": "fontawesome"
    },
    {
      "uid": "7b7116fa67e5e3f4c98e5928ebe3f6ae",
      "css": "forumbee",
      "code": 61969,
      "src": "fontawesome"
    },
    {
      "uid": "a32d12927584e3c8a3dff23eb816d360",
      "css": "foursquare",
      "code": 61824,
      "src": "fontawesome"
    },
    {
      "uid": "c75b7d61b0bce6aeb54292e3952a1568",
      "css": "git-squared",
      "code": 61906,
      "src": "fontawesome"
    },
    {
      "uid": "e7cb72a17f3b21e3576f35c3f0a7639b",
      "css": "git",
      "code": 61907,
      "src": "fontawesome"
    },
    {
      "uid": "5e0a374728ffa8d0ae1f331a8f648231",
      "css": "github",
      "code": 61715,
      "src": "fontawesome"
    },
    {
      "uid": "0ece9a12de796b8411f868d582bee678",
      "css": "github-squared",
      "code": 62208,
      "src": "fontawesome"
    },
    {
      "uid": "0f6a2573a7b6df911ed199bb63717e27",
      "css": "github-circled",
      "code": 61595,
      "src": "fontawesome"
    },
    {
      "uid": "5b4b48418155c35459f12171f97c82ff",
      "css": "gittip",
      "code": 61828,
      "src": "fontawesome"
    },
    {
      "uid": "f06fe7ff18d1c591bc1183cb3ab105e9",
      "css": "google",
      "code": 61856,
      "src": "fontawesome"
    },
    {
      "uid": "b8d0c7d76e87b94882329a88e8e43d3d",
      "css": "gplus",
      "code": 61653,
      "src": "fontawesome"
    },
    {
      "uid": "f0cf7db1b03cb65adc450aa3bdaf8c4d",
      "css": "gplus-squared",
      "code": 61652,
      "src": "fontawesome"
    },
    {
      "uid": "50fbbd926b2a64fcaf384788056c0e43",
      "css": "gwallet",
      "code": 61934,
      "src": "fontawesome"
    },
    {
      "uid": "237ee28b7e826b75a5b6f51ee3e2bfc1",
      "css": "hacker-news",
      "code": 61908,
      "src": "fontawesome"
    },
    {
      "uid": "ff44f01f60948555026580eedf1e39bb",
      "css": "html5",
      "code": 61755,
      "src": "fontawesome"
    },
    {
      "uid": "4c1ef492f1d2c39a2250ae457cee2a6e",
      "css": "instagram",
      "code": 61805,
      "src": "fontawesome"
    },
    {
      "uid": "9b9e5f3ee9e3525808ed2afc83e8bb0b",
      "css": "ioxhost",
      "code": 61960,
      "src": "fontawesome"
    },
    {
      "uid": "8cd1b9899389237def726c08587a649f",
      "css": "joomla",
      "code": 61866,
      "src": "fontawesome"
    },
    {
      "uid": "486f6d0a05aef9e65eeb07be26793bd3",
      "css": "jsfiddle",
      "code": 61900,
      "src": "fontawesome"
    },
    {
      "uid": "5dcf6620378353c5b0089b12d961fedf",
      "css": "lastfm",
      "code": 61954,
      "src": "fontawesome"
    },
    {
      "uid": "32e335f0cd5c4fcc692af6fa742f6b7e",
      "css": "lastfm-squared",
      "code": 61955,
      "src": "fontawesome"
    },
    {
      "uid": "f78244d4753a3aa2be87d56b858d148d",
      "css": "leanpub",
      "code": 61970,
      "src": "fontawesome"
    },
    {
      "uid": "1145676a91138011729fa2909997af66",
      "css": "linkedin-squared",
      "code": 62220,
      "src": "fontawesome"
    },
    {
      "uid": "47a35af762c8e06f3d152750134c8750",
      "css": "linux",
      "code": 61820,
      "src": "fontawesome"
    },
    {
      "uid": "e9107949dd6c9e8ab2b29ae07156e38c",
      "css": "linkedin",
      "code": 61665,
      "src": "fontawesome"
    },
    {
      "uid": "fcdc6d7a89771d2dbd38eb719aafb2ff",
      "css": "maxcdn",
      "code": 61750,
      "src": "fontawesome"
    },
    {
      "uid": "9b2e17ef8fc33eb2a1c8b5953d51c595",
      "css": "meanpath",
      "code": 61964,
      "src": "fontawesome"
    },
    {
      "uid": "da8a58b1deff73d1ba89ba1172ca4bcc",
      "css": "openid",
      "code": 61851,
      "src": "fontawesome"
    },
    {
      "uid": "bbf50a560f95a4cce5209d47e71cbc30",
      "css": "pagelines",
      "code": 61836,
      "src": "fontawesome"
    },
    {
      "uid": "1d2b426ab6db81a58547ba13d8701ad8",
      "css": "paypal",
      "code": 61933,
      "src": "fontawesome"
    },
    {
      "uid": "92a4d74aa4e0549812301299020915a5",
      "css": "pied-piper-squared",
      "code": 61863,
      "src": "fontawesome"
    },
    {
      "uid": "604733d6d4f7ae269a2ea97f4dc7c346",
      "css": "pied-piper-alt",
      "code": 61864,
      "src": "fontawesome"
    },
    {
      "uid": "cc399e4597f157dcbf016be0b7407fea",
      "css": "pinterest",
      "code": 62001,
      "src": "fontawesome"
    },
    {
      "uid": "da851b7c1f84ee83f93b29ae613558dc",
      "css": "pinterest-circled",
      "code": 61650,
      "src": "fontawesome"
    },
    {
      "uid": "79689c4c425b7cdaa2746f510e81e27a",
      "css": "pinterest-squared",
      "code": 61651,
      "src": "fontawesome"
    },
    {
      "uid": "657ff9fe5df74f1993937aa4b19cf909",
      "css": "qq",
      "code": 61910,
      "src": "fontawesome"
    },
    {
      "uid": "9121e3eb89863f67c8bda378eea01a93",
      "css": "reddit",
      "code": 61857,
      "src": "fontawesome"
    },
    {
      "uid": "4fc515c6a083b42e628273ab06cb2a90",
      "css": "reddit-squared",
      "code": 61858,
      "src": "fontawesome"
    },
    {
      "uid": "cfa8a2588cab42a6ff7ba81eb4fec21b",
      "css": "renren",
      "code": 61835,
      "src": "fontawesome"
    },
    {
      "uid": "281020881dd80ef01d0369bf4b80ebef",
      "css": "sellsy",
      "code": 61971,
      "src": "fontawesome"
    },
    {
      "uid": "770fafc9392963133bb03b4ad4ed3a28",
      "css": "shirtsinbulk",
      "code": 61972,
      "src": "fontawesome"
    },
    {
      "uid": "12b38aeedfa5b6672936432bc7d3082c",
      "css": "simplybuilt",
      "code": 61973,
      "src": "fontawesome"
    },
    {
      "uid": "a0afa21fe64100c16eac19f4e1615c2a",
      "css": "skyatlas",
      "code": 61974,
      "src": "fontawesome"
    },
    {
      "uid": "58a16628dcbd6456c61218f3d27591be",
      "css": "skype",
      "code": 61822,
      "src": "fontawesome"
    },
    {
      "uid": "87276033a77d0b9b890125c3639e4f87",
      "css": "slack",
      "code": 61848,
      "src": "fontawesome"
    },
    {
      "uid": "be13b8c668eb18839d5d53107725f1de",
      "css": "slideshare",
      "code": 61927,
      "src": "fontawesome"
    },
    {
      "uid": "dff942d95eb1b3f1be140e622d0a7c74",
      "css": "soundcloud",
      "code": 61886,
      "src": "fontawesome"
    },
    {
      "uid": "fb4794d89b77ab712ad56c0dc4c76c6b",
      "css": "spotify",
      "code": 61884,
      "src": "fontawesome"
    },
    {
      "uid": "b6d6b3561d705330c7ad2155e8ee94ba",
      "css": "stackexchange",
      "code": 61837,
      "src": "fontawesome"
    },
    {
      "uid": "e1597911f34fea0a188ae51fe4a2d9a9",
      "css": "stackoverflow",
      "code": 61804,
      "src": "fontawesome"
    },
    {
      "uid": "2ec1790207a8ba67a7192c6af1eafec4",
      "css": "steam",
      "code": 61878,
      "src": "fontawesome"
    },
    {
      "uid": "727544621cb891115c99b4a4cfed01df",
      "css": "steam-squared",
      "code": 61879,
      "src": "fontawesome"
    },
    {
      "uid": "3958d12510001a1a172f088893506c27",
      "css": "stumbleupon",
      "code": 61860,
      "src": "fontawesome"
    },
    {
      "uid": "7377e22d1e1d2dd079f87b05fb6a11a3",
      "css": "stumbleupon-circled",
      "code": 61859,
      "src": "fontawesome"
    },
    {
      "uid": "d9b33592f56a02af69a36aa64ed452fc",
      "css": "tencent-weibo",
      "code": 61909,
      "src": "fontawesome"
    },
    {
      "uid": "b846892636bd74112998bb159bdddf27",
      "css": "trello",
      "code": 61825,
      "src": "fontawesome"
    },
    {
      "uid": "43fcf807461234935e65261328e1dff6",
      "css": "tumblr",
      "code": 61811,
      "src": "fontawesome"
    },
    {
      "uid": "5b79895d979c408282b4e92fa7db8e82",
      "css": "tumblr-squared",
      "code": 61812,
      "src": "fontawesome"
    },
    {
      "uid": "e70df9acbabaebfbbf9c1dbc3e52ab13",
      "css": "twitch",
      "code": 61928,
      "src": "fontawesome"
    },
    {
      "uid": "906348dc798a0d42715cc97c875e3ac6",
      "css": "twitter-squared",
      "code": 62212,
      "src": "fontawesome"
    },
    {
      "uid": "627abcdb627cb1789e009c08e2678ef9",
      "css": "twitter",
      "code": 61593,
      "src": "fontawesome"
    },
    {
      "uid": "1f66490bf24c99e2c56b866d8fbd0372",
      "css": "vimeo-squared",
      "code": 61844,
      "src": "fontawesome"
    },
    {
      "uid": "676cf66256441f09e4934ae6378b3e2d",
      "css": "vine",
      "code": 61898,
      "src": "fontawesome"
    },
    {
      "uid": "f3d95e13eb43f3f6b8efe1eb424a1e3b",
      "css": "vkontakte",
      "code": 61833,
      "src": "fontawesome"
    },
    {
      "uid": "9d3e9faf68fd4e12def853f0d4e1173b",
      "css": "whatsapp",
      "code": 62002,
      "src": "fontawesome"
    },
    {
      "uid": "34cb6ce62bf3f1efd59e2f5eb0d79f82",
      "css": "wechat",
      "code": 61911,
      "src": "fontawesome"
    },
    {
      "uid": "9854b94688e31450fc76aae4c2a45dff",
      "css": "weibo",
      "code": 61834,
      "src": "fontawesome"
    },
    {
      "uid": "8aff323697468c4a63993cde00386ec6",
      "css": "windows",
      "code": 61818,
      "src": "fontawesome"
    },
    {
      "uid": "39f52f80e1864df5e5022d7f0f5ff86f",
      "css": "wordpress",
      "code": 61850,
      "src": "fontawesome"
    },
    {
      "uid": "11ebb30e17efcd988a228ade5d3e8c74",
      "css": "xing",
      "code": 61800,
      "src": "fontawesome"
    },
    {
      "uid": "f7dff44258aa565cbe35565be350b58d",
      "css": "xing-squared",
      "code": 61801,
      "src": "fontawesome"
    },
    {
      "uid": "7a48de2ac7ca47c78d6c279996ee6250",
      "css": "yelp",
      "code": 61929,
      "src": "fontawesome"
    },
    {
      "uid": "a9862b9d5197886c1ad693ecd7120b31",
      "css": "youtube",
      "code": 61799,
      "src": "fontawesome"
    },
    {
      "uid": "ba071f2b01f1fed40d8e2366434b6f42",
      "css": "yahoo",
      "code": 61854,
      "src": "fontawesome"
    },
    {
      "uid": "e331ff486a299c6bdf0056426c8fac53",
      "css": "youtube-squared",
      "code": 61798,
      "src": "fontawesome"
    },
    {
      "uid": "47a1f80457068fbeab69fdb83d7d0817",
      "css": "youtube-play",
      "code": 61802,
      "src": "fontawesome"
    },
    {
      "uid": "2c2ca8a96b31781c9c8056d05c0a8980",
      "css": "blank",
      "code": 61640,
      "src": "fontawesome"
    },
    {
      "uid": "5e0191587645a9f5d514ed4b0a0e008a",
      "css": "lemon",
      "code": 59552,
      "src": "fontawesome"
    },
    {
      "uid": "6052fa7e25643f06a46dc7eedb5f596b",
      "css": "genderless",
      "code": 61997,
      "src": "fontawesome"
    },
    {
      "uid": "cee894776000256eed076cb6bf06599e",
      "css": "y-combinator",
      "code": 62011,
      "src": "fontawesome"
    },
    {
      "uid": "41cdd46ab935131f6dfea37a5b9e7add",
      "css": "optin-monster",
      "code": 62012,
      "src": "fontawesome"
    },
    {
      "uid": "10e444e650c211fbcb6ae5e73671d94b",
      "css": "opencart",
      "code": 62013,
      "src": "fontawesome"
    },
    {
      "uid": "653f72ed4ded6e41c93fd571970efe6f",
      "css": "expeditedssl",
      "code": 62014,
      "src": "fontawesome"
    },
    {
      "uid": "69bd9dfe950d07d910f39c6988364e49",
      "css": "battery-4",
      "code": 62016,
      "src": "fontawesome"
    },
    {
      "uid": "7ab4ec24078133effbc4e923b65ef835",
      "css": "battery-3",
      "code": 62017,
      "src": "fontawesome"
    },
    {
      "uid": "e430a168b45ba40aa988ca1a5034a553",
      "css": "battery-2",
      "code": 62018,
      "src": "fontawesome"
    },
    {
      "uid": "99f4ea74adc24022106932d84a49b055",
      "css": "battery-1",
      "code": 62019,
      "src": "fontawesome"
    },
    {
      "uid": "9983d2489e028d659d196915a25ef3ca",
      "css": "battery-0",
      "code": 62020,
      "src": "fontawesome"
    },
    {
      "uid": "12a80769cc7ac08e986deeafbe553054",
      "css": "mouse-pointer",
      "code": 62021,
      "src": "fontawesome"
    },
    {
      "uid": "c4c41817bb8c088a8ec6d08784b33da7",
      "css": "i-cursor",
      "code": 62022,
      "src": "fontawesome"
    },
    {
      "uid": "7aa8cc552d9d6d19815750fc339cf090",
      "css": "object-group",
      "code": 62023,
      "src": "fontawesome"
    },
    {
      "uid": "d4edf8563d5cb3b5f654808aa4fe438a",
      "css": "object-ungroup",
      "code": 62024,
      "src": "fontawesome"
    },
    {
      "uid": "c116c18983825a9b32a23a62fd18e1e6",
      "css": "sticky-note",
      "code": 62025,
      "src": "fontawesome"
    },
    {
      "uid": "b9ca73befd583b2197a56a68045c9c0c",
      "css": "sticky-note-o",
      "code": 62026,
      "src": "fontawesome"
    },
    {
      "uid": "69529d146afd305c4e34b7e3b9be7012",
      "css": "cc-jcb",
      "code": 62027,
      "src": "fontawesome"
    },
    {
      "uid": "956f4ffb9483306d20278f271ad9da1e",
      "css": "cc-diners-club",
      "code": 62028,
      "src": "fontawesome"
    },
    {
      "uid": "6846d155ad5bda456569df81f3057faa",
      "css": "clone",
      "code": 62029,
      "src": "fontawesome"
    },
    {
      "uid": "ff1710a605b3fc98346903db89034558",
      "css": "balance-scale",
      "code": 62030,
      "src": "fontawesome"
    },
    {
      "uid": "9dfee680431bb2f9cc4485bfa4d982ac",
      "css": "hourglass-o",
      "code": 62032,
      "src": "fontawesome"
    },
    {
      "uid": "8bc4e828380b962c8b5a04ee982f1d71",
      "css": "hourglass-1",
      "code": 62033,
      "src": "fontawesome"
    },
    {
      "uid": "f70af5dd0ecd154b007d980cd011a7f7",
      "css": "hourglass-2",
      "code": 62034,
      "src": "fontawesome"
    },
    {
      "uid": "423dee39096bacea6b9e3b00919b983c",
      "css": "hourglass-3",
      "code": 62035,
      "src": "fontawesome"
    },
    {
      "uid": "bc9b0a766409e4ddeb2e9745c3e8130c",
      "css": "hourglass",
      "code": 62036,
      "src": "fontawesome"
    },
    {
      "uid": "c82f1ec71a2c9e5af8b00fe5fe27f57e",
      "css": "hand-grab-o",
      "code": 62037,
      "src": "fontawesome"
    },
    {
      "uid": "abf08be829659c02d1f9a711daefa8ce",
      "css": "hand-paper-o",
      "code": 62038,
      "src": "fontawesome"
    },
    {
      "uid": "dd0acda8a6217fd10e94d4feadccd90f",
      "css": "hand-scissors-o",
      "code": 62039,
      "src": "fontawesome"
    },
    {
      "uid": "0eb9a32706e05e4f9f2561aa1bfbb7e9",
      "css": "hand-lizard-o",
      "code": 62040,
      "src": "fontawesome"
    },
    {
      "uid": "7a8becfd21312643b7be5463583e7425",
      "css": "hand-spock-o",
      "code": 62041,
      "src": "fontawesome"
    },
    {
      "uid": "18e30ad120ce4b15d7e5c797e4bf0ee8",
      "css": "hand-pointer-o",
      "code": 62042,
      "src": "fontawesome"
    },
    {
      "uid": "31562b831ad0016b89ddf9693214041f",
      "css": "hand-peace-o",
      "code": 62043,
      "src": "fontawesome"
    },
    {
      "uid": "c3ec0e8d143190ee85d404bd064bf8f4",
      "css": "trademark",
      "code": 62044,
      "src": "fontawesome"
    },
    {
      "uid": "c3371cca5561d470f45ae0a9c485b7ec",
      "css": "registered",
      "code": 62045,
      "src": "fontawesome"
    },
    {
      "uid": "e9b178b4a02c08399ca5ea10ba522528",
      "css": "creative-commons",
      "code": 62046,
      "src": "fontawesome"
    },
    {
      "uid": "b37d0b43098feda6ef73a24dcf4fc58f",
      "css": "gg",
      "code": 62048,
      "src": "fontawesome"
    },
    {
      "uid": "994cebef2d88a25f775b1b2b318f71c7",
      "css": "gg-circle",
      "code": 62049,
      "src": "fontawesome"
    },
    {
      "uid": "fbc6facd27f744438410cbcad545bf52",
      "css": "tripadvisor",
      "code": 62050,
      "src": "fontawesome"
    },
    {
      "uid": "2f87e74e6eb8d985044bf7f3c47cb50b",
      "css": "odnoklassniki",
      "code": 62051,
      "src": "fontawesome"
    },
    {
      "uid": "b3ccbe22f1b25b3f3ecfd7096a7c9187",
      "css": "odnoklassniki-square",
      "code": 62052,
      "src": "fontawesome"
    },
    {
      "uid": "685e1db17ba5c233b6ab38aed4084a24",
      "css": "get-pocket",
      "code": 62053,
      "src": "fontawesome"
    },
    {
      "uid": "0b5f5c9abb1b4f21e75ff572955aa1de",
      "css": "wikipedia-w",
      "code": 62054,
      "src": "fontawesome"
    },
    {
      "uid": "c5af9b4626c0f2fa6dc259f9f035b055",
      "css": "safari",
      "code": 62055,
      "src": "fontawesome"
    },
    {
      "uid": "bd7fd67bed189448225cad0fe4ef3d7c",
      "css": "chrome",
      "code": 62056,
      "src": "fontawesome"
    },
    {
      "uid": "c97bfbcfb31e74be0653d8551c89a40f",
      "css": "firefox",
      "code": 62057,
      "src": "fontawesome"
    },
    {
      "uid": "52f734427edaded2af2fc050ac5d3554",
      "css": "opera",
      "code": 62058,
      "src": "fontawesome"
    },
    {
      "uid": "c0a33f22eaeba6c843457bc23a7ab2a8",
      "css": "internet-explorer",
      "code": 62059,
      "src": "fontawesome"
    },
    {
      "uid": "cfb6e143c0650c485536374f2a2f88fb",
      "css": "television",
      "code": 62060,
      "src": "fontawesome"
    },
    {
      "uid": "a5c942b3315f858cd0fc1a34a1b0d1bb",
      "css": "contao",
      "code": 62061,
      "src": "fontawesome"
    },
    {
      "uid": "baec122d16d314a0e0e66d5fb6b55a4b",
      "css": "500px",
      "code": 62062,
      "src": "fontawesome"
    },
    {
      "uid": "efb5a384af4a5450b7c9acff76a85b8b",
      "css": "amazon",
      "code": 62064,
      "src": "fontawesome"
    },
    {
      "uid": "e7eecc3cc44f3f4cad6229b202588308",
      "css": "calendar-plus-o",
      "code": 62065,
      "src": "fontawesome"
    },
    {
      "uid": "e66ec405e2e1f3bec6546b4e776924d3",
      "css": "calendar-minus-o",
      "code": 62066,
      "src": "fontawesome"
    },
    {
      "uid": "a027a2ce420dfd6b660212d5ac6a7cc9",
      "css": "calendar-times-o",
      "code": 62067,
      "src": "fontawesome"
    },
    {
      "uid": "9de4ac1aec6b1cca1929e1407eecf3db",
      "css": "calendar-check-o",
      "code": 62068,
      "src": "fontawesome"
    },
    {
      "uid": "31efa81b26fa5a380119c95d6b831d6d",
      "css": "industry",
      "code": 62069,
      "src": "fontawesome"
    },
    {
      "uid": "8b4584b43f9858f2d38b3741ecdfe15c",
      "css": "map-pin",
      "code": 62070,
      "src": "fontawesome"
    },
    {
      "uid": "94aa5db477515f1da4ce43b239badb9e",
      "css": "map-signs",
      "code": 62071,
      "src": "fontawesome"
    },
    {
      "uid": "c62cbc7fa604e32cc19731a3bb29be79",
      "css": "map-o",
      "code": 62072,
      "src": "fontawesome"
    },
    {
      "uid": "79beb8c7fcd56e1985b70e9a120cbcbf",
      "css": "map",
      "code": 62073,
      "src": "fontawesome"
    },
    {
      "uid": "53c28626072159c49f33b71d67138ad9",
      "css": "commenting",
      "code": 62074,
      "src": "fontawesome"
    },
    {
      "uid": "9cc990bbcac7aa8504078b3f49df79b1",
      "css": "commenting-o",
      "code": 62075,
      "src": "fontawesome"
    },
    {
      "uid": "52ee4b2769437c85066253217b23c265",
      "css": "houzz",
      "code": 62076,
      "src": "fontawesome"
    },
    {
      "uid": "6b44ce2430177c5b05a1d1575ccaaf5c",
      "css": "vimeo",
      "code": 62077,
      "src": "fontawesome"
    },
    {
      "uid": "7b610e9b9c75f602f9006ce645986c8c",
      "css": "black-tie",
      "code": 62078,
      "src": "fontawesome"
    },
    {
      "uid": "dab8d5c8dbacfa8b2c310a7aa97a28da",
      "css": "fonticons",
      "code": 62080,
      "src": "fontawesome"
    },
    {
      "uid": "f08ba9f0e8f9b426a92efcaa59c1e932",
      "css": "reddit-alien",
      "code": 62081,
      "src": "fontawesome"
    },
    {
      "uid": "03957a1f03b5ae5dfac6e5027d893157",
      "css": "edge",
      "code": 62082,
      "src": "fontawesome"
    },
    {
      "uid": "7ea4150d9eb2d2ade9491d5ad905718c",
      "css": "credit-card-alt",
      "code": 62083,
      "src": "fontawesome"
    },
    {
      "uid": "b649f3c065f335b126ec3eb3ac78759b",
      "css": "codiepie",
      "code": 62084,
      "src": "fontawesome"
    },
    {
      "uid": "e3a73480599b09c84f6657ef2e081abd",
      "css": "modx",
      "code": 62085,
      "src": "fontawesome"
    },
    {
      "uid": "fc649ed0a69a0a1916ac6d5125234183",
      "css": "fort-awesome",
      "code": 62086,
      "src": "fontawesome"
    },
    {
      "uid": "21e7025c85a7eeae71fd3539855afe2b",
      "css": "usb",
      "code": 62087,
      "src": "fontawesome"
    },
    {
      "uid": "26eb5e234f87bad251fdd8e285b6fae7",
      "css": "product-hunt",
      "code": 62088,
      "src": "fontawesome"
    },
    {
      "uid": "e6eeb1a403c52c3f981eb19646021691",
      "css": "mixcloud",
      "code": 62089,
      "src": "fontawesome"
    },
    {
      "uid": "5c6ee0240a4b7b2b8674ec1f0ca8886d",
      "css": "scribd",
      "code": 62090,
      "src": "fontawesome"
    },
    {
      "uid": "9c0fabd22e5b65b3ef7ed847eb864bcb",
      "css": "pause-circle",
      "code": 62091,
      "src": "fontawesome"
    },
    {
      "uid": "4ae8cbc2c1329cb5dbe6e6995d8c68be",
      "css": "pause-circle-o",
      "code": 62092,
      "src": "fontawesome"
    },
    {
      "uid": "3363990fa5a224d75ed1740e1ec50bb6",
      "css": "stop-circle",
      "code": 62093,
      "src": "fontawesome"
    },
    {
      "uid": "5434b2bf3a3a6c4c260a11a386e3f5d1",
      "css": "stop-circle-o",
      "code": 62094,
      "src": "fontawesome"
    },
    {
      "uid": "d531ea7e8c094b73df941ed0bac921f3",
      "css": "shopping-bag",
      "code": 62096,
      "src": "fontawesome"
    },
    {
      "uid": "90e0aff5c929e444038355746a952aaf",
      "css": "shopping-basket",
      "code": 62097,
      "src": "fontawesome"
    },
    {
      "uid": "090c79ed8971e478a27fae8a3eb3eb11",
      "css": "hashtag",
      "code": 62098,
      "src": "fontawesome"
    },
    {
      "uid": "fb15371451b9110f93afcaa70d6ea98d",
      "css": "bluetooth",
      "code": 62099,
      "src": "fontawesome"
    },
    {
      "uid": "9a0873ae5167deefbf38061b7cddbe34",
      "css": "bluetooth-b",
      "code": 62100,
      "src": "fontawesome"
    },
    {
      "uid": "2c452255d4fed51ef0a6ef86436a7d08",
      "css": "percent",
      "code": 62101,
      "src": "fontawesome"
    },
    {
      "uid": "7cca4643f1e938c673e91c0c78058ddf",
      "css": "gitlab",
      "code": 62102,
      "src": "fontawesome"
    },
    {
      "uid": "4be3f9da1280527c2a1f41fbf34ad4c4",
      "css": "wpbeginner",
      "code": 62103,
      "src": "fontawesome"
    },
    {
      "uid": "a41cabcd11152063a37f2407048c5494",
      "css": "wpforms",
      "code": 62104,
      "src": "fontawesome"
    },
    {
      "uid": "40177cc6c35597ea3422673689409152",
      "css": "envira",
      "code": 62105,
      "src": "fontawesome"
    },
    {
      "uid": "caeb3b38733e4cf2702a50d3c7c4ee6f",
      "css": "universal-access",
      "code": 62106,
      "src": "fontawesome"
    },
    {
      "uid": "9729f562bc9df27c93250f66c1a1b2f3",
      "css": "wheelchair-alt",
      "code": 62107,
      "src": "fontawesome"
    },
    {
      "uid": "9c9f0a69d4abbeb5ff9d779df7679356",
      "css": "question-circle-o",
      "code": 62108,
      "src": "fontawesome"
    },
    {
      "uid": "cce5e05853d0798a4d10077ef613387c",
      "css": "blind",
      "code": 62109,
      "src": "fontawesome"
    },
    {
      "uid": "472c1b83f2e156e20280a4854e1cfa69",
      "css": "audio-description",
      "code": 62110,
      "src": "fontawesome"
    },
    {
      "uid": "ed42a2d393650165b737216b5fe85c40",
      "css": "volume-control-phone",
      "code": 62112,
      "src": "fontawesome"
    },
    {
      "uid": "a0e6549c693b73d4fe92b1db1824b919",
      "css": "braille",
      "code": 62113,
      "src": "fontawesome"
    },
    {
      "uid": "2e0a6d93466b3f1b0fc90c15b2aff13f",
      "css": "assistive-listening-systems",
      "code": 62114,
      "src": "fontawesome"
    },
    {
      "uid": "ecc56ff0652abe04c23b4f5d736ed506",
      "css": "american-sign-language-interpreting",
      "code": 62115,
      "src": "fontawesome"
    },
    {
      "uid": "0e393c5fb8776a60df0d71b5ee46ca44",
      "css": "asl-interpreting",
      "code": 62116,
      "src": "fontawesome"
    },
    {
      "uid": "dc6cb47e30d3ca4fd06c8cbf9248692f",
      "css": "glide",
      "code": 62117,
      "src": "fontawesome"
    },
    {
      "uid": "2a3fc031662edd118ba3c2e2f8564aef",
      "css": "glide-g",
      "code": 62118,
      "src": "fontawesome"
    },
    {
      "uid": "67b150662a25d2c6d556d23d721b9569",
      "css": "sign-language",
      "code": 62119,
      "src": "fontawesome"
    },
    {
      "uid": "440e5cbb0f604b4be0c0183e63a0cde3",
      "css": "low-vision",
      "code": 62120,
      "src": "fontawesome"
    },
    {
      "uid": "7eed62ae3352efe006c173a890f44d45",
      "css": "viadeo",
      "code": 62121,
      "src": "fontawesome"
    },
    {
      "uid": "52328217db1b956669bc214cd7c64dcc",
      "css": "viadeo-square",
      "code": 62122,
      "src": "fontawesome"
    },
    {
      "uid": "cab8b1ea47d71c77413157c592db2293",
      "css": "snapchat",
      "code": 62123,
      "src": "fontawesome"
    },
    {
      "uid": "1b1a592d33fa26c37926cbe840eb60b8",
      "css": "snapchat-ghost",
      "code": 62124,
      "src": "fontawesome"
    },
    {
      "uid": "d20b5fb608f848b0e14aef1325c9e23c",
      "css": "snapchat-square",
      "code": 62125,
      "src": "fontawesome"
    },
    {
      "uid": "caa1c8d19cb3f0b7641eb59828bd50bb",
      "css": "pied-piper",
      "code": 62126,
      "src": "fontawesome"
    },
    {
      "uid": "80b02191b84eb4ea4516adc83330d7b3",
      "css": "first-order",
      "code": 62128,
      "src": "fontawesome"
    },
    {
      "uid": "cc0c348dee522c0f93e3287dccaf2b8f",
      "css": "yoast",
      "code": 62129,
      "src": "fontawesome"
    },
    {
      "uid": "67c726a4267687f5061ebaa1bbdf1c79",
      "css": "themeisle",
      "code": 62130,
      "src": "fontawesome"
    },
    {
      "uid": "2342c9255e31850fcf5f89799cb8420f",
      "css": "google-plus-circle",
      "code": 62131,
      "src": "fontawesome"
    },
    {
      "uid": "3c8e3fe48360de90a1ff1267411aae88",
      "css": "font-awesome",
      "code": 62132,
      "src": "fontawesome"
    },
    {
      "uid": "9fecfcfe680a469caedeeb40641a479f",
      "css": "handshake-o",
      "code": 62133,
      "src": "fontawesome"
    },
    {
      "uid": "f89739d9df5c9e70ece9be9cdf66abb6",
      "css": "envelope-open",
      "code": 62134,
      "src": "fontawesome"
    },
    {
      "uid": "57ae6bdecc7044555daa84354a8dfe49",
      "css": "envelope-open-o",
      "code": 62135,
      "src": "fontawesome"
    },
    {
      "uid": "0259fec71de1f22e70877ca024b634fd",
      "css": "linode",
      "code": 62136,
      "src": "fontawesome"
    },
    {
      "uid": "15899c11210bc9f45fc15a507789f6be",
      "css": "address-book",
      "code": 62137,
      "src": "fontawesome"
    },
    {
      "uid": "693e13611b84512c92e6115e0c31934d",
      "css": "address-book-o",
      "code": 62138,
      "src": "fontawesome"
    },
    {
      "uid": "79d27b578931fd441a6dc885c9dd88a6",
      "css": "address-card",
      "code": 62139,
      "src": "fontawesome"
    },
    {
      "uid": "68eb56470b836f19335231578515153e",
      "css": "address-card-o",
      "code": 62140,
      "src": "fontawesome"
    },
    {
      "uid": "818981e2ad316f18ae61cfa805d41309",
      "css": "user-circle",
      "code": 62141,
      "src": "fontawesome"
    },
    {
      "uid": "3fce1eca43f917c8f23e532749abae5d",
      "css": "user-circle-o",
      "code": 62142,
      "src": "fontawesome"
    },
    {
      "uid": "b86df50a2d898bfcd371fa86c0b8b2fb",
      "css": "user-o",
      "code": 62144,
      "src": "fontawesome"
    },
    {
      "uid": "b2cc036e1ba44934896c345436ac44d1",
      "css": "id-badge",
      "code": 62145,
      "src": "fontawesome"
    },
    {
      "uid": "37b41cdae5ec9dab40e0c5bfff8a0ec8",
      "css": "id-card",
      "code": 62146,
      "src": "fontawesome"
    },
    {
      "uid": "2e6301ac94d0d51566727b9199259451",
      "css": "id-card-o",
      "code": 62147,
      "src": "fontawesome"
    },
    {
      "uid": "2726ee8140faa11aba6a4183a8a8b903",
      "css": "quora",
      "code": 62148,
      "src": "fontawesome"
    },
    {
      "uid": "8dc7142e4848751b5d2b0200ba77b991",
      "css": "free-code-camp",
      "code": 62149,
      "src": "fontawesome"
    },
    {
      "uid": "531359183f9fedb14b23666f1308591f",
      "css": "telegram",
      "code": 62150,
      "src": "fontawesome"
    },
    {
      "uid": "07c8bfac1a39b6c62bc83e23a3c4b706",
      "css": "thermometer",
      "code": 62151,
      "src": "fontawesome"
    },
    {
      "uid": "d7ef51ac5d8223e1c4e6551b833a6b44",
      "css": "thermometer-3",
      "code": 62152,
      "src": "fontawesome"
    },
    {
      "uid": "c22930d29b554d41c0ef882aafd3f8c9",
      "css": "thermometer-2",
      "code": 62153,
      "src": "fontawesome"
    },
    {
      "uid": "f50506878717cd58f94b689daa79bfae",
      "css": "thermometer-quarter",
      "code": 62154,
      "src": "fontawesome"
    },
    {
      "uid": "bc89c320cf57f6c88f1ae7248e12a28f",
      "css": "thermometer-0",
      "code": 62155,
      "src": "fontawesome"
    },
    {
      "uid": "71abe0fa648a63c00b5222c37345b38c",
      "css": "shower",
      "code": 62156,
      "src": "fontawesome"
    },
    {
      "uid": "5d24e595104bfd7117db134253fc9ca1",
      "css": "bath",
      "code": 62157,
      "src": "fontawesome"
    },
    {
      "uid": "af4312b5501867fa089ec3afeece5630",
      "css": "podcast",
      "code": 62158,
      "src": "fontawesome"
    },
    {
      "uid": "07f0832c07f3d9713fffb06c8bffa027",
      "css": "window-maximize",
      "code": 62160,
      "src": "fontawesome"
    },
    {
      "uid": "04f022b8bd044d4ccfffd3887ff72088",
      "css": "window-minimize",
      "code": 62161,
      "src": "fontawesome"
    },
    {
      "uid": "d0e62145dbf40f30e47b3819b8b43a8f",
      "css": "window-restore",
      "code": 62162,
      "src": "fontawesome"
    },
    {
      "uid": "7394501fc0b17cb7bda99538f92e26d6",
      "css": "window-close",
      "code": 62163,
      "src": "fontawesome"
    },
    {
      "uid": "316d3c537e21cb6b56c466bb615b32e6",
      "css": "window-close-o",
      "code": 62164,
      "src": "fontawesome"
    },
    {
      "uid": "50eb1aca5fe19bd9eaa1257117cb0419",
      "css": "bandcamp",
      "code": 62165,
      "src": "fontawesome"
    },
    {
      "uid": "527f48749d1d339c73a09fd5f12f77c0",
      "css": "grav",
      "code": 62166,
      "src": "fontawesome"
    },
    {
      "uid": "0abcdfbaa2ece1cbd5a7896e8cfc4668",
      "css": "etsy",
      "code": 62167,
      "src": "fontawesome"
    },
    {
      "uid": "eea8064584ca4397576380d9de87bfc3",
      "css": "imdb",
      "code": 62168,
      "src": "fontawesome"
    },
    {
      "uid": "aa34496baad01bf631deaf33a2acbf85",
      "css": "ravelry",
      "code": 62169,
      "src": "fontawesome"
    },
    {
      "uid": "4f0e633d65949512c49f9a95c959b5a0",
      "css": "eercast",
      "code": 62170,
      "src": "fontawesome"
    },
    {
      "uid": "1cb3652ffb3492344fa3a675c3ff3290",
      "css": "microchip",
      "code": 62171,
      "src": "fontawesome"
    },
    {
      "uid": "56f2eac13d2b397ff4a54dc38f783b95",
      "css": "snowflake-o",
      "code": 62172,
      "src": "fontawesome"
    },
    {
      "uid": "d38d01d4665f7aaaaddd789800ef7669",
      "css": "superpowers",
      "code": 62173,
      "src": "fontawesome"
    },
    {
      "uid": "74195f8d61ee77a2ba6df97c9ace11e8",
      "css": "wpexplorer",
      "code": 62174,
      "src": "fontawesome"
    },
    {
      "uid": "322a3317bf081dd6a78d5d6a620e1dd5",
      "css": "meetup",
      "code": 62176,
      "src": "fontawesome"
    }
  ]
}